RTL2GDS/bidcounter_tb.vcd
$date
	Tue Aug  8 20:08:50 2023
$end
$version
	Icarus Verilog
$end
$timescale
	1ps
$end
$scope module bidcounter_tb $end
$var wire 4 ! count [3:0] $end
$var reg 1 " clk $end
$var reg 1 # ctrl $end
$var reg 1 $ reset $end
$scope module counter $end
$var wire 1 % _17_ $end
$var wire 1 " clk $end
$var wire 1 # ctrl $end
$var wire 1 $ reset $end
$var wire 4 & _26_ [3:0] $end
$var wire 4 ' _25_ [3:0] $end
$var wire 1 ( _24_ $end
$var wire 1 ) _23_ $end
$var wire 1 * _22_ $end
$var wire 1 + _21_ $end
$var wire 1 , _20_ $end
$var wire 1 - _19_ $end
$var wire 1 . _18_ $end
$var wire 1 / _16_ $end
$var wire 1 0 _15_ $end
$var wire 1 1 _14_ $end
$var wire 1 2 _13_ $end
$var wire 1 3 _12_ $end
$var wire 1 4 _11_ $end
$var wire 1 5 _10_ $end
$var wire 1 6 _09_ $end
$var reg 4 7 count [3:0] $end
$scope module _27_ $end
$var wire 1 2 A $end
$var wire 1 8 VGND $end
$var wire 1 9 VNB $end
$var wire 1 : VPB $end
$var wire 1 ; VPWR $end
$var wire 1 6 Y $end
$scope module base $end
$var wire 1 2 A $end
$var wire 1 < VGND $end
$var wire 1 = VNB $end
$var wire 1 > VPB $end
$var wire 1 ? VPWR $end
$var wire 1 6 Y $end
$var wire 1 @ not0_out_Y $end
$upscope $end
$upscope $end
$scope module _28_ $end
$var wire 1 % A_N $end
$var wire 1 1 B $end
$var wire 1 A VGND $end
$var wire 1 B VNB $end
$var wire 1 C VPB $end
$var wire 1 D VPWR $end
$var wire 1 . Y $end
$scope module base $end
$var wire 1 % A_N $end
$var wire 1 1 B $end
$var wire 1 E VGND $end
$var wire 1 F VNB $end
$var wire 1 G VPB $end
$var wire 1 H VPWR $end
$var wire 1 . Y $end
$var wire 1 I not0_out $end
$var wire 1 J or0_out_Y $end
$upscope $end
$upscope $end
$scope module _29_ $end
$var wire 1 1 A $end
$var wire 1 % B $end
$var wire 1 K VGND $end
$var wire 1 L VNB $end
$var wire 1 M VPB $end
$var wire 1 N VPWR $end
$var wire 1 - X $end
$scope module base $end
$var wire 1 1 A $end
$var wire 1 % B $end
$var wire 1 O VGND $end
$var wire 1 P VNB $end
$var wire 1 Q VPB $end
$var wire 1 R VPWR $end
$var wire 1 - X $end
$var wire 1 S xor0_out_X $end
$upscope $end
$upscope $end
$scope module _30_ $end
$var wire 1 2 A $end
$var wire 1 - B $end
$var wire 1 T VGND $end
$var wire 1 U VNB $end
$var wire 1 V VPB $end
$var wire 1 W VPWR $end
$var wire 1 5 Y $end
$scope module base $end
$var wire 1 2 A $end
$var wire 1 - B $end
$var wire 1 X VGND $end
$var wire 1 Y VNB $end
$var wire 1 Z VPB $end
$var wire 1 [ VPWR $end
$var wire 1 5 Y $end
$var wire 1 \ xnor0_out_Y $end
$upscope $end
$upscope $end
$scope module _31_ $end
$var wire 1 6 A1 $end
$var wire 1 - A2 $end
$var wire 1 . B1 $end
$var wire 1 ] VGND $end
$var wire 1 ^ VNB $end
$var wire 1 _ VPB $end
$var wire 1 ` VPWR $end
$var wire 1 , Y $end
$scope module base $end
$var wire 1 6 A1 $end
$var wire 1 - A2 $end
$var wire 1 . B1 $end
$var wire 1 a VGND $end
$var wire 1 b VNB $end
$var wire 1 c VPB $end
$var wire 1 d VPWR $end
$var wire 1 , Y $end
$var wire 1 e nand0_out_Y $end
$var wire 1 f or0_out $end
$upscope $end
$upscope $end
$scope module _32_ $end
$var wire 1 % A $end
$var wire 1 0 B $end
$var wire 1 g VGND $end
$var wire 1 h VNB $end
$var wire 1 i VPB $end
$var wire 1 j VPWR $end
$var wire 1 + X $end
$scope module base $end
$var wire 1 % A $end
$var wire 1 0 B $end
$var wire 1 k VGND $end
$var wire 1 l VNB $end
$var wire 1 m VPB $end
$var wire 1 n VPWR $end
$var wire 1 + X $end
$var wire 1 o xor0_out_X $end
$upscope $end
$upscope $end
$scope module _33_ $end
$var wire 1 , A $end
$var wire 1 + B $end
$var wire 1 p VGND $end
$var wire 1 q VNB $end
$var wire 1 r VPB $end
$var wire 1 s VPWR $end
$var wire 1 4 Y $end
$scope module base $end
$var wire 1 , A $end
$var wire 1 + B $end
$var wire 1 t VGND $end
$var wire 1 u VNB $end
$var wire 1 v VPB $end
$var wire 1 w VPWR $end
$var wire 1 4 Y $end
$var wire 1 x xnor0_out_Y $end
$upscope $end
$upscope $end
$scope module _34_ $end
$var wire 1 2 A $end
$var wire 1 1 B $end
$var wire 1 % C $end
$var wire 1 0 D $end
$var wire 1 y VGND $end
$var wire 1 z VNB $end
$var wire 1 { VPB $end
$var wire 1 | VPWR $end
$var wire 1 * Y $end
$scope module base $end
$var wire 1 2 A $end
$var wire 1 1 B $end
$var wire 1 % C $end
$var wire 1 0 D $end
$var wire 1 } VGND $end
$var wire 1 ~ VNB $end
$var wire 1 !" VPB $end
$var wire 1 "" VPWR $end
$var wire 1 * Y $end
$var wire 1 #" nand0_out_Y $end
$upscope $end
$upscope $end
$scope module _35_ $end
$var wire 1 2 A $end
$var wire 1 1 B $end
$var wire 1 % C $end
$var wire 1 0 D $end
$var wire 1 $" VGND $end
$var wire 1 %" VNB $end
$var wire 1 &" VPB $end
$var wire 1 '" VPWR $end
$var wire 1 ) X $end
$scope module base $end
$var wire 1 2 A $end
$var wire 1 1 B $end
$var wire 1 % C $end
$var wire 1 0 D $end
$var wire 1 (" VGND $end
$var wire 1 )" VNB $end
$var wire 1 *" VPB $end
$var wire 1 +" VPWR $end
$var wire 1 ) X $end
$var wire 1 ," or0_out_X $end
$upscope $end
$upscope $end
$scope module _36_ $end
$var wire 1 * A $end
$var wire 1 ) B $end
$var wire 1 -" VGND $end
$var wire 1 ." VNB $end
$var wire 1 /" VPB $end
$var wire 1 0" VPWR $end
$var wire 1 ( Y $end
$scope module base $end
$var wire 1 * A $end
$var wire 1 ) B $end
$var wire 1 1" VGND $end
$var wire 1 2" VNB $end
$var wire 1 3" VPB $end
$var wire 1 4" VPWR $end
$var wire 1 ( Y $end
$var wire 1 5" nand0_out_Y $end
$upscope $end
$upscope $end
$scope module _37_ $end
$var wire 1 / A $end
$var wire 1 ( B $end
$var wire 1 6" VGND $end
$var wire 1 7" VNB $end
$var wire 1 8" VPB $end
$var wire 1 9" VPWR $end
$var wire 1 3 X $end
$scope module base $end
$var wire 1 / A $end
$var wire 1 ( B $end
$var wire 1 :" VGND $end
$var wire 1 ;" VNB $end
$var wire 1 <" VPB $end
$var wire 1 =" VPWR $end
$var wire 1 3 X $end
$var wire 1 >" xor0_out_X $end
$upscope $end
$upscope $end
$upscope $end
$upscope $end
$enddefinitions $end
#0
$dumpvars
x>"
1="
1<"
0;"
0:"
19"
18"
07"
06"
x5"
14"
13"
02"
01"
10"
1/"
0."
0-"
x,"
1+"
1*"
0)"
0("
1'"
1&"
0%"
0$"
x#"
1""
1!"
0~
0}
1|
1{
0z
0y
xx
1w
1v
0u
0t
1s
1r
0q
0p
xo
1n
1m
0l
0k
1j
1i
0h
0g
xf
xe
1d
1c
0b
0a
1`
1_
0^
0]
x\
1[
1Z
0Y
0X
1W
1V
0U
0T
xS
1R
1Q
0P
0O
1N
1M
0L
0K
xJ
xI
1H
1G
0F
0E
1D
1C
0B
0A
x@
1?
1>
0=
0<
1;
1:
09
08
bx 7
x6
x5
x4
x3
x2
x1
x0
x/
x.
x-
x,
x+
x*
x)
x(
bzx '
bx &
x%
1$
x#
0"
bx !
$end
#1000
0,
0e
1f
bx1 &
1.
bz1 '
16
1J
1*
1@
1I
1#"
02
01
00
0/
b0 !
b0 7
1"
#2000
0"
#3000
1"
#4000
13
1>"
15
b1111 &
14
1(
1\
1x
15"
0-
0+
0)
0S
0o
0,"
0"
0%
0#
0$
#5000
1,
1e
14
0(
0.
1x
05"
bz0 '
06
15
0J
1-
1+
1)
b1110 &
13
0@
1\
0I
1S
1o
1,"
1>"
12
11
10
1/
b1111 !
b1111 7
1"
#6000
0"
#7000
bz1 '
16
b1101 &
05
1@
0\
02
b1110 !
b1110 7
1"
#8000
0"
#9000
1.
0f
bz0 '
06
b1100 &
05
1J
0-
0@
0\
1I
0S
12
01
b1101 !
b1101 7
1"
#10000
0"
#11000
04
0x
0,
0e
1f
bz1 '
16
b1011 &
15
1@
1\
02
b1100 !
b1100 7
1"
#12000
0"
#13000
1,
1e
04
0.
0x
bz0 '
06
b1010 &
15
0J
1-
0+
0@
1\
0I
1S
0o
12
11
00
b1011 !
b1011 7
1"
#14000
0"
#15000
bz1 '
16
b1001 &
05
1@
0\
02
b1010 !
b1010 7
1"
#16000
0"
#17000
1.
0f
bz0 '
06
b1000 &
05
1J
0-
0@
0\
1I
0S
12
01
b1001 !
b1001 7
1"
#18000
0"
#19000
14
1x
03
0,
0>"
0e
1(
1f
15"
bz1 '
16
b111 &
15
0)
1@
1\
0,"
02
b1000 !
b1000 7
1"
#20000
0"
#21000
1,
1e
14
0(
0.
1x
05"
bz0 '
06
15
0J
1-
1+
1)
b110 &
03
0@
1\
0I
1S
1o
1,"
0>"
12
11
10
0/
b111 !
b111 7
1"
#22000
0"
#23000
bz1 '
16
b101 &
05
1@
0\
02
b110 !
b110 7
1"
#24000
0"
#25000
1.
0f
bz0 '
06
b100 &
05
1J
0-
0@
0\
1I
0S
12
01
b101 !
b101 7
1"
#26000
0"
#27000
04
0x
0,
0e
1f
bz1 '
16
b11 &
15
1@
1\
02
b100 !
b100 7
1"
#28000
0"
#29000
1,
1e
04
0.
0x
bz0 '
06
b10 &
15
0J
1-
0+
0@
1\
0I
1S
0o
12
11
00
b11 !
b11 7
1"
#30000
0"
#31000
bz1 '
16
b1 &
05
1@
0\
02
b10 !
b10 7
1"
#32000
0"
#33000
1.
0f
bz0 '
06
b0 &
05
1J
0-
0@
0\
1I
0S
12
01
b1 !
b1 7
1"
#34000
0"
#35000
14
1x
13
0,
1>"
0e
1(
1f
15"
bz1 '
16
b1111 &
15
0)
1@
1\
0,"
02
b0 !
b0 7
1"
#36000
0"
#37000
1,
1e
14
0(
0.
1x
05"
bz0 '
06
15
0J
1-
1+
1)
b1110 &
13
0@
1\
0I
1S
1o
1,"
1>"
12
11
10
1/
b1111 !
b1111 7
1"
#38000
0"
#39000
bz1 '
16
b1101 &
05
1@
0\
02
b1110 !
b1110 7
1"
#40000
0"
#41000
1.
0f
bz0 '
06
b1100 &
05
1J
0-
0@
0\
1I
0S
12
01
b1101 !
b1101 7
1"
#42000
0"
#43000
04
0x
0,
0e
1f
bz1 '
16
b1011 &
15
1@
1\
02
b1100 !
b1100 7
1"
#44000
0"
#45000
1,
1e
04
0.
0x
bz0 '
06
b1010 &
15
0J
1-
0+
0@
1\
0I
1S
0o
12
11
00
b1011 !
b1011 7
1"
#46000
0"
#47000
bz1 '
16
b1001 &
05
1@
0\
02
b1010 !
b1010 7
1"
#48000
0"
#49000
1.
0f
bz0 '
06
b1000 &
05
1J
0-
0@
0\
1I
0S
12
01
b1001 !
b1001 7
1"
#50000
0"
#51000
14
1x
03
0,
0>"
0e
1(
1f
15"
bz1 '
16
b111 &
15
0)
1@
1\
0,"
02
b1000 !
b1000 7
1"
#52000
0"
#53000
1,
1e
14
0(
0.
1x
05"
bz0 '
06
15
0J
1-
1+
1)
b110 &
03
0@
1\
0I
1S
1o
1,"
0>"
12
11
10
0/
b111 !
b111 7
1"
#54000
0"
#55000
bz1 '
16
b101 &
05
1@
0\
02
b110 !
b110 7
1"
#56000
0"
#57000
1.
0f
bz0 '
06
b100 &
05
1J
0-
0@
0\
1I
0S
12
01
b101 !
b101 7
1"
#58000
0"
#59000
04
0x
0,
0e
1f
bz1 '
16
b11 &
15
1@
1\
02
b100 !
b100 7
1"
#60000
0"
#61000
1,
1e
04
0.
0x
bz0 '
06
b10 &
15
0J
1-
0+
0@
1\
0I
1S
0o
12
11
00
b11 !
b11 7
1"
#62000
0"
#63000
bz1 '
16
b1 &
05
1@
0\
02
b10 !
b10 7
1"
#64000
0"
#65000
1.
0f
bz0 '
06
b0 &
05
1J
0-
0@
0\
1I
0S
12
01
b1 !
b1 7
1"
#66000
0"
#67000
14
1x
13
0,
1>"
0e
1(
1f
15"
bz1 '
16
b1111 &
15
0)
1@
1\
0,"
02
b0 !
b0 7
1"
#68000
0"
#69000
1,
1e
14
0(
0.
1x
05"
bz0 '
06
15
0J
1-
1+
1)
b1110 &
13
0@
1\
0I
1S
1o
1,"
1>"
12
11
10
1/
b1111 !
b1111 7
1"
#70000
0"
#71000
bz1 '
16
b1101 &
05
1@
0\
02
b1110 !
b1110 7
1"
#72000
0"
#73000
1.
0f
bz0 '
06
b1100 &
05
1J
0-
0@
0\
1I
0S
12
01
b1101 !
b1101 7
1"
#74000
0"
#75000
04
0x
0,
0e
1f
bz1 '
16
b1011 &
15
1@
1\
02
b1100 !
b1100 7
1"
#76000
0"
#77000
1,
1e
04
0.
0x
bz0 '
06
b1010 &
15
0J
1-
0+
0@
1\
0I
1S
0o
12
11
00
b1011 !
b1011 7
1"
#78000
0"
#79000
bz1 '
16
b1001 &
05
1@
0\
02
b1010 !
b1010 7
1"
#80000
0"
#81000
1.
0f
bz0 '
06
b1000 &
05
1J
0-
0@
0\
1I
0S
12
01
b1001 !
b1001 7
1"
#82000
0"
#83000
14
1x
03
0,
0>"
0e
1(
1f
15"
bz1 '
16
b111 &
15
0)
1@
1\
0,"
02
b1000 !
b1000 7
1"
#84000
0"
#85000
1,
1e
14
0(
0.
1x
05"
bz0 '
06
15
0J
1-
1+
1)
b110 &
03
0@
1\
0I
1S
1o
1,"
0>"
12
11
10
0/
b111 !
b111 7
1"
#86000
0"
#87000
bz1 '
16
b101 &
05
1@
0\
02
b110 !
b110 7
1"
#88000
0"
#89000
1.
0f
bz0 '
06
b100 &
05
1J
0-
0@
0\
1I
0S
12
01
b101 !
b101 7
1"
#90000
0"
#91000
04
0x
0,
0e
1f
bz1 '
16
b11 &
15
1@
1\
02
b100 !
b100 7
1"
#92000
0"
#93000
1,
1e
04
0.
0x
bz0 '
06
b10 &
15
0J
1-
0+
0@
1\
0I
1S
0o
12
11
00
b11 !
b11 7
1"
#94000
0"
#95000
bz1 '
16
b1 &
05
1@
0\
02
b10 !
b10 7
1"
#96000
0"
#97000
1.
0f
bz0 '
06
b0 &
05
1J
0-
0@
0\
1I
0S
12
01
b1 !
b1 7
1"
#98000
0"
#99000
14
1x
13
0,
1>"
0e
1(
1f
15"
bz1 '
16
b1111 &
15
0)
1@
1\
0,"
02
b0 !
b0 7
1"
#100000
0"
#101000
1,
1e
14
0(
0.
1x
05"
bz0 '
06
15
0J
1-
1+
1)
b1110 &
13
0@
1\
0I
1S
1o
1,"
1>"
12
11
10
1/
b1111 !
b1111 7
1"
#102000
0"
#103000
bz1 '
16
b1101 &
05
1@
0\
02
b1110 !
b1110 7
1"
#104000
0"
#105000
1.
0f
bz0 '
06
b1100 &
05
1J
0-
0@
0\
1I
0S
12
01
b1101 !
b1101 7
1"
#106000
0"
#107000
04
0x
0,
0e
1f
bz1 '
16
b1011 &
15
1@
1\
02
b1100 !
b1100 7
1"
#108000
0"
#109000
1,
1e
04
0.
0x
bz0 '
06
b1010 &
15
0J
1-
0+
0@
1\
0I
1S
0o
12
11
00
b1011 !
b1011 7
1"
#110000
0"
#111000
bz1 '
16
b1001 &
05
1@
0\
02
b1010 !
b1010 7
1"
#112000
0"
#113000
1.
0f
bz0 '
06
b1000 &
05
1J
0-
0@
0\
1I
0S
12
01
b1001 !
b1001 7
1"
#114000
0"
#115000
14
1x
03
0,
0>"
0e
1(
1f
15"
bz1 '
16
b111 &
15
0)
1@
1\
0,"
02
b1000 !
b1000 7
1"
#116000
0"
#117000
1,
1e
14
0(
0.
1x
05"
bz0 '
06
15
0J
1-
1+
1)
b110 &
03
0@
1\
0I
1S
1o
1,"
0>"
12
11
10
0/
b111 !
b111 7
1"
#118000
0"
#119000
bz1 '
16
b101 &
05
1@
0\
02
b110 !
b110 7
1"
#120000
0"
#121000
1.
0f
bz0 '
06
b100 &
05
1J
0-
0@
0\
1I
0S
12
01
b101 !
b101 7
1"
#122000
0"
#123000
04
0x
0,
0e
1f
bz1 '
16
b11 &
15
1@
1\
02
b100 !
b100 7
1"
#124000
0"
#125000
1,
1e
04
0.
0x
bz0 '
06
b10 &
15
0J
1-
0+
0@
1\
0I
1S
0o
12
11
00
b11 !
b11 7
1"
#126000
0"
#127000
bz1 '
16
b1 &
05
1@
0\
02
b10 !
b10 7
1"
#128000
0"
#129000
1.
0f
bz0 '
06
b0 &
05
1J
0-
0@
0\
1I
0S
12
01
b1 !
b1 7
1"
#130000
0"
#131000
14
1x
13
0,
1>"
0e
1(
1f
15"
bz1 '
16
b1111 &
15
0)
1@
1\
0,"
02
b0 !
b0 7
1"
#132000
0"
#133000
1,
1e
14
0(
0.
1x
05"
bz0 '
06
15
0J
1-
1+
1)
b1110 &
13
0@
1\
0I
1S
1o
1,"
1>"
12
11
10
1/
b1111 !
b1111 7
1"
#134000
0"
#135000
bz1 '
16
b1101 &
05
1@
0\
02
b1110 !
b1110 7
1"
#136000
0"
#137000
1.
0f
bz0 '
06
b1100 &
05
1J
0-
0@
0\
1I
0S
12
01
b1101 !
b1101 7
1"
#138000
0"
#139000
04
0x
0,
0e
1f
bz1 '
16
b1011 &
15
1@
1\
02
b1100 !
b1100 7
1"
#140000
0"
#141000
1,
1e
04
0.
0x
bz0 '
06
b1010 &
15
0J
1-
0+
0@
1\
0I
1S
0o
12
11
00
b1011 !
b1011 7
1"
#142000
0"
#143000
bz1 '
16
b1001 &
05
1@
0\
02
b1010 !
b1010 7
1"
#144000
0"
#145000
1.
0f
bz0 '
06
b1000 &
05
1J
0-
0@
0\
1I
0S
12
01
b1001 !
b1001 7
1"
#146000
0"
#147000
14
1x
03
0,
0>"
0e
1(
1f
15"
bz1 '
16
b111 &
15
0)
1@
1\
0,"
02
b1000 !
b1000 7
1"
#148000
0"
#149000
1,
1e
14
0(
0.
1x
05"
bz0 '
06
15
0J
1-
1+
1)
b110 &
03
0@
1\
0I
1S
1o
1,"
0>"
12
11
10
0/
b111 !
b111 7
1"
#150000
0"
#151000
bz1 '
16
b101 &
05
1@
0\
02
b110 !
b110 7
1"
#152000
0"
#153000
1.
0f
bz0 '
06
b100 &
05
1J
0-
0@
0\
1I
0S
12
01
b101 !
b101 7
1"
#154000
0"
#155000
04
0x
0,
0e
1f
bz1 '
16
b11 &
15
1@
1\
02
b100 !
b100 7
1"
#156000
0"
#157000
1,
1e
04
0.
0x
bz0 '
06
b10 &
15
0J
1-
0+
0@
1\
0I
1S
0o
12
11
00
b11 !
b11 7
1"
#158000
0"
#159000
bz1 '
16
b1 &
05
1@
0\
02
b10 !
b10 7
1"
#160000
0"
#161000
1.
0f
bz0 '
06
b0 &
05
1J
0-
0@
0\
1I
0S
12
01
b1 !
b1 7
1"
#162000
0"
#163000
14
1x
13
0,
1>"
0e
1(
1f
15"
bz1 '
16
b1111 &
15
0)
1@
1\
0,"
02
b0 !
b0 7
1"
#164000
0"
#165000
1,
1e
14
0(
0.
1x
05"
bz0 '
06
15
0J
1-
1+
1)
b1110 &
13
0@
1\
0I
1S
1o
1,"
1>"
12
11
10
1/
b1111 !
b1111 7
1"
#166000
0"
#167000
bz1 '
16
b1101 &
05
1@
0\
02
b1110 !
b1110 7
1"
#168000
0"
#169000
1.
0f
bz0 '
06
b1100 &
05
1J
0-
0@
0\
1I
0S
12
01
b1101 !
b1101 7
1"
#170000
0"
#171000
04
0x
0,
0e
1f
bz1 '
16
b1011 &
15
1@
1\
02
b1100 !
b1100 7
1"
#172000
0"
#173000
1,
1e
04
0.
0x
bz0 '
06
b1010 &
15
0J
1-
0+
0@
1\
0I
1S
0o
12
11
00
b1011 !
b1011 7
1"
#174000
0"
#175000
bz1 '
16
b1001 &
05
1@
0\
02
b1010 !
b1010 7
1"
#176000
0"
#177000
1.
0f
bz0 '
06
b1000 &
05
1J
0-
0@
0\
1I
0S
12
01
b1001 !
b1001 7
1"
#178000
0"
#179000
14
1x
03
0,
0>"
0e
1(
1f
15"
bz1 '
16
b111 &
15
0)
1@
1\
0,"
02
b1000 !
b1000 7
1"
#180000
0"
#181000
1,
1e
14
0(
0.
1x
05"
bz0 '
06
15
0J
1-
1+
1)
b110 &
03
0@
1\
0I
1S
1o
1,"
0>"
12
11
10
0/
b111 !
b111 7
1"
#182000
0"
#183000
bz1 '
16
b101 &
05
1@
0\
02
b110 !
b110 7
1"
#184000
0"
#185000
1.
0f
bz0 '
06
b100 &
05
1J
0-
0@
0\
1I
0S
12
01
b101 !
b101 7
1"
#186000
0"
#187000
04
0x
0,
0e
1f
bz1 '
16
b11 &
15
1@
1\
02
b100 !
b100 7
1"
#188000
0"
#189000
1,
1e
04
0.
0x
bz0 '
06
b10 &
15
0J
1-
0+
0@
1\
0I
1S
0o
12
11
00
b11 !
b11 7
1"
#190000
0"
#191000
bz1 '
16
b1 &
05
1@
0\
02
b10 !
b10 7
1"
#192000
0"
#193000
1.
0f
bz0 '
06
b0 &
05
1J
0-
0@
0\
1I
0S
12
01
b1 !
b1 7
1"
#194000
0"
#195000
14
1x
13
0,
1>"
0e
1(
1f
15"
bz1 '
16
b1111 &
15
0)
1@
1\
0,"
02
b0 !
b0 7
1"
#196000
0"
#197000
1,
1e
14
0(
0.
1x
05"
bz0 '
06
15
0J
1-
1+
1)
b1110 &
13
0@
1\
0I
1S
1o
1,"
1>"
12
11
10
1/
b1111 !
b1111 7
1"
#198000
0"
#199000
bz1 '
16
b1101 &
05
1@
0\
02
b1110 !
b1110 7
1"
#200000
0"
#201000
1.
0f
bz0 '
06
b1100 &
05
1J
0-
0@
0\
1I
0S
12
01
b1101 !
b1101 7
1"
#202000
0"
#203000
04
0x
0,
0e
1f
bz1 '
16
b1011 &
15
1@
1\
02
b1100 !
b1100 7
1"
#204000
0"
#205000
1,
1e
04
0.
0x
bz0 '
06
b1010 &
15
0J
1-
0+
0@
1\
0I
1S
0o
12
11
00
b1011 !
b1011 7
1"
#206000
0"
#207000
bz1 '
16
b1001 &
05
1@
0\
02
b1010 !
b1010 7
1"
#208000
0"
#209000
1.
0f
bz0 '
06
b1000 &
05
1J
0-
0@
0\
1I
0S
12
01
b1001 !
b1001 7
1"
#210000
0"
#211000
14
1x
03
0,
0>"
0e
1(
1f
15"
bz1 '
16
b111 &
15
0)
1@
1\
0,"
02
b1000 !
b1000 7
1"
#212000
0"
#213000
1,
1e
14
0(
0.
1x
05"
bz0 '
06
15
0J
1-
1+
1)
b110 &
03
0@
1\
0I
1S
1o
1,"
0>"
12
11
10
0/
b111 !
b111 7
1"
#214000
0"
#215000
bz1 '
16
b101 &
05
1@
0\
02
b110 !
b110 7
1"
#216000
0"
#217000
1.
0f
bz0 '
06
b100 &
05
1J
0-
0@
0\
1I
0S
12
01
b101 !
b101 7
1"
#218000
0"
#219000
04
0x
0,
0e
1f
bz1 '
16
b11 &
15
1@
1\
02
b100 !
b100 7
1"
#220000
0"
#221000
1,
1e
04
0.
0x
bz0 '
06
b10 &
15
0J
1-
0+
0@
1\
0I
1S
0o
12
11
00
b11 !
b11 7
1"
#222000
0"
#223000
bz1 '
16
b1 &
05
1@
0\
02
b10 !
b10 7
1"
#224000
0"
#225000
1.
0f
bz0 '
06
b0 &
05
1J
0-
0@
0\
1I
0S
12
01
b1 !
b1 7
1"
#226000
0"
#227000
14
1x
13
0,
1>"
0e
1(
1f
15"
bz1 '
16
b1111 &
15
0)
1@
1\
0,"
02
b0 !
b0 7
1"
#228000
0"
#229000
1,
1e
14
0(
0.
1x
05"
bz0 '
06
15
0J
1-
1+
1)
b1110 &
13
0@
1\
0I
1S
1o
1,"
1>"
12
11
10
1/
b1111 !
b1111 7
1"
#230000
0"
#231000
bz1 '
16
b1101 &
05
1@
0\
02
b1110 !
b1110 7
1"
#232000
0"
#233000
1.
0f
bz0 '
06
b1100 &
05
1J
0-
0@
0\
1I
0S
12
01
b1101 !
b1101 7
1"
#234000
0"
#235000
04
0x
0,
0e
1f
bz1 '
16
b1011 &
15
1@
1\
02
b1100 !
b1100 7
1"
#236000
0"
#237000
1,
1e
04
0.
0x
bz0 '
06
b1010 &
15
0J
1-
0+
0@
1\
0I
1S
0o
12
11
00
b1011 !
b1011 7
1"
#238000
0"
#239000
bz1 '
16
b1001 &
05
1@
0\
02
b1010 !
b1010 7
1"
#240000
0"
#241000
1.
0f
bz0 '
06
b1000 &
05
1J
0-
0@
0\
1I
0S
12
01
b1001 !
b1001 7
1"
#242000
0"
#243000
14
1x
03
0,
0>"
0e
1(
1f
15"
bz1 '
16
b111 &
15
0)
1@
1\
0,"
02
b1000 !
b1000 7
1"
#244000
0"
#245000
1,
1e
14
0(
0.
1x
05"
bz0 '
06
15
0J
1-
1+
1)
b110 &
03
0@
1\
0I
1S
1o
1,"
0>"
12
11
10
0/
b111 !
b111 7
1"
#246000
0"
#247000
bz1 '
16
b101 &
05
1@
0\
02
b110 !
b110 7
1"
#248000
0"
#249000
1.
0f
bz0 '
06
b100 &
05
1J
0-
0@
0\
1I
0S
12
01
b101 !
b101 7
1"
#250000
0"
#251000
04
0x
0,
0e
1f
bz1 '
16
b11 &
15
1@
1\
02
b100 !
b100 7
1"
#252000
0"
#253000
1,
1e
04
0.
0x
bz0 '
06
b10 &
15
0J
1-
0+
0@
1\
0I
1S
0o
12
11
00
b11 !
b11 7
1"
#254000
05
b100 &
14
0\
0f
1x
1.
0-
1+
1J
0S
1o
0"
1%
1#
#255000
0,
14
0e
1x
1f
0+
1-
bz1 '
16
b101 &
05
0o
1I
1S
1@
0\
10
01
02
b100 !
b100 7
1"
#256000
0"
#257000
bz0 '
06
b110 &
15
0@
1\
12
b101 !
b101 7
1"
#258000
0"
#259000
0-
bz1 '
16
b111 &
15
0I
0S
1@
1\
11
02
b110 !
b110 7
1"
#260000
0"
#261000
04
0x
13
1,
1>"
1e
1(
0f
15"
bz0 '
06
b1000 &
05
0*
0@
0\
0#"
12
b111 !
b111 7
1"
#262000
0"
#263000
0,
04
0e
0(
0x
1f
05"
13
1+
1-
bz1 '
16
b1001 &
05
1*
1>"
1o
1I
1S
1@
0\
1#"
1/
00
01
02
b1000 !
b1000 7
1"
#264000
0"
#265000
bz0 '
06
b1010 &
15
0@
1\
12
b1001 !
b1001 7
1"
#266000
0"
#267000
0-
bz1 '
16
b1011 &
15
0I
0S
1@
1\
11
02
b1010 !
b1010 7
1"
#268000
0"
#269000
14
1x
1,
1e
0f
bz0 '
06
b1100 &
05
0@
0\
12
b1011 !
b1011 7
1"
#270000
0"
#271000
0,
14
0e
1x
1f
0+
1-
bz1 '
16
b1101 &
05
0o
1I
1S
1@
0\
10
01
02
b1100 !
b1100 7
1"
#272000
0"
#273000
bz0 '
06
b1110 &
15
0@
1\
12
b1101 !
b1101 7
1"
#274000
0"
#275000
0-
bz1 '
16
b1111 &
15
0I
0S
1@
1\
11
02
b1110 !
b1110 7
1"
#276000
0"
#277000
04
0x
03
1,
0>"
1e
1(
0f
15"
bz0 '
06
b0 &
05
0*
0@
0\
0#"
12
b1111 !
b1111 7
1"
#278000
0"
#279000
0,
04
0e
0(
0x
1f
05"
03
1+
1-
bz1 '
16
b1 &
05
1*
0>"
1o
1I
1S
1@
0\
1#"
0/
00
01
02
b0 !
b0 7
1"
#280000
0"
#281000
bz0 '
06
b10 &
15
0@
1\
12
b1 !
b1 7
1"
#282000
0"
#283000
0-
bz1 '
16
b11 &
15
0I
0S
1@
1\
11
02
b10 !
b10 7
1"
#284000
0"
#285000
14
1x
1,
1e
0f
bz0 '
06
b100 &
05
0@
0\
12
b11 !
b11 7
1"
#286000
0"
#287000
0,
14
0e
1x
1f
0+
1-
bz1 '
16
b101 &
05
0o
1I
1S
1@
0\
10
01
02
b100 !
b100 7
1"
#288000
0"
#289000
bz0 '
06
b110 &
15
0@
1\
12
b101 !
b101 7
1"
#290000
0"
#291000
0-
bz1 '
16
b111 &
15
0I
0S
1@
1\
11
02
b110 !
b110 7
1"
#292000
0"
#293000
04
0x
13
1,
1>"
1e
1(
0f
15"
bz0 '
06
b1000 &
05
0*
0@
0\
0#"
12
b111 !
b111 7
1"
#294000
0"
#295000
0,
04
0e
0(
0x
1f
05"
13
1+
1-
bz1 '
16
b1001 &
05
1*
1>"
1o
1I
1S
1@
0\
1#"
1/
00
01
02
b1000 !
b1000 7
1"
#296000
0"
#297000
bz0 '
06
b1010 &
15
0@
1\
12
b1001 !
b1001 7
1"
#298000
0"
#299000
0-
bz1 '
16
b1011 &
15
0I
0S
1@
1\
11
02
b1010 !
b1010 7
1"
#300000
0"
#301000
14
1x
1,
1e
0f
bz0 '
06
b1100 &
05
0@
0\
12
b1011 !
b1011 7
1"
#302000
0"
#303000
0,
14
0e
1x
1f
0+
1-
bz1 '
16
b1101 &
05
0o
1I
1S
1@
0\
10
01
02
b1100 !
b1100 7
1"
#304000
0"
#305000
bz0 '
06
b1110 &
15
0@
1\
12
b1101 !
b1101 7
1"
#306000
0"
#307000
0-
bz1 '
16
b1111 &
15
0I
0S
1@
1\
11
02
b1110 !
b1110 7
1"
#308000
0"
#309000
04
0x
03
1,
0>"
1e
1(
0f
15"
bz0 '
06
b0 &
05
0*
0@
0\
0#"
12
b1111 !
b1111 7
1"
#310000
0"
#311000
0,
04
0e
0(
0x
1f
05"
03
1+
1-
bz1 '
16
b1 &
05
1*
0>"
1o
1I
1S
1@
0\
1#"
0/
00
01
02
b0 !
b0 7
1"
#312000
0"
#313000
bz0 '
06
b10 &
15
0@
1\
12
b1 !
b1 7
1"
#314000
0"
