RTL2GDS/sta_analysis/netlist/bidcounter_ff_n40C_1v56/gls_report/wave.vcd
$date
	Mon Oct 23 19:38:24 2023
$end
$version
	Icarus Verilog
$end
$timescale
	1ps
$end
$scope module bidcounter_tb $end
$var wire 4 ! count [3:0] $end
$var reg 1 " clk $end
$var reg 1 # ctrl $end
$var reg 1 $ reset $end
$scope module counter $end
$var wire 1 % _17_ $end
$var wire 1 & _28_ $end
$var wire 4 ' _29_ [3:0] $end
$var wire 1 ( _31_ $end
$var wire 1 ) _32_ $end
$var wire 1 * _33_ $end
$var wire 1 + _34_ $end
$var wire 1 " clk $end
$var wire 1 # ctrl $end
$var wire 1 $ reset $end
$var wire 4 , count [3:0] $end
$var wire 4 - _30_ [3:0] $end
$var wire 1 . _27_ $end
$var wire 1 / _26_ $end
$var wire 1 0 _25_ $end
$var wire 1 1 _24_ $end
$var wire 1 2 _23_ $end
$var wire 1 3 _22_ $end
$var wire 1 4 _21_ $end
$var wire 1 5 _20_ $end
$var wire 1 6 _19_ $end
$var wire 1 7 _18_ $end
$var wire 1 8 _16_ $end
$var wire 1 9 _15_ $end
$var wire 1 : _14_ $end
$var wire 1 ; _13_ $end
$var wire 1 < _12_ $end
$var wire 1 = _11_ $end
$var wire 1 > _10_ $end
$var wire 1 ? _09_ $end
$scope module _35_ $end
$var wire 1 % A $end
$var wire 1 @ VGND $end
$var wire 1 A VNB $end
$var wire 1 B VPB $end
$var wire 1 C VPWR $end
$var wire 1 7 Y $end
$scope module base $end
$var wire 1 % A $end
$var wire 1 D VGND $end
$var wire 1 E VNB $end
$var wire 1 F VPB $end
$var wire 1 G VPWR $end
$var wire 1 7 Y $end
$var wire 1 H not0_out_Y $end
$upscope $end
$upscope $end
$scope module _36_ $end
$var wire 1 ; A $end
$var wire 1 & B $end
$var wire 1 I VGND $end
$var wire 1 J VNB $end
$var wire 1 K VPB $end
$var wire 1 L VPWR $end
$var wire 1 ? Y $end
$scope module base $end
$var wire 1 ; A $end
$var wire 1 & B $end
$var wire 1 M VGND $end
$var wire 1 N VNB $end
$var wire 1 O VPB $end
$var wire 1 P VPWR $end
$var wire 1 ? Y $end
$var wire 1 Q nor0_out_Y $end
$upscope $end
$upscope $end
$scope module _37_ $end
$var wire 1 : A $end
$var wire 1 % B $end
$var wire 1 R VGND $end
$var wire 1 S VNB $end
$var wire 1 T VPB $end
$var wire 1 U VPWR $end
$var wire 1 6 Y $end
$scope module base $end
$var wire 1 : A $end
$var wire 1 % B $end
$var wire 1 V VGND $end
$var wire 1 W VNB $end
$var wire 1 X VPB $end
$var wire 1 Y VPWR $end
$var wire 1 6 Y $end
$var wire 1 Z xnor0_out_Y $end
$upscope $end
$upscope $end
$scope module _38_ $end
$var wire 1 ; A1 $end
$var wire 1 6 A2 $end
$var wire 1 & B1_N $end
$var wire 1 [ VGND $end
$var wire 1 \ VNB $end
$var wire 1 ] VPB $end
$var wire 1 ^ VPWR $end
$var wire 1 5 Y $end
$scope module base $end
$var wire 1 ; A1 $end
$var wire 1 6 A2 $end
$var wire 1 & B1_N $end
$var wire 1 _ VGND $end
$var wire 1 ` VNB $end
$var wire 1 a VPB $end
$var wire 1 b VPWR $end
$var wire 1 5 Y $end
$var wire 1 c b $end
$var wire 1 d nand0_out_Y $end
$var wire 1 e or0_out $end
$upscope $end
$upscope $end
$scope module _39_ $end
$var wire 1 ; A1 $end
$var wire 1 6 A2 $end
$var wire 1 5 B1 $end
$var wire 1 f VGND $end
$var wire 1 g VNB $end
$var wire 1 h VPB $end
$var wire 1 i VPWR $end
$var wire 1 > Y $end
$scope module base $end
$var wire 1 ; A1 $end
$var wire 1 6 A2 $end
$var wire 1 5 B1 $end
$var wire 1 j VGND $end
$var wire 1 k VNB $end
$var wire 1 l VPB $end
$var wire 1 m VPWR $end
$var wire 1 > Y $end
$var wire 1 n and0_out $end
$var wire 1 o nor0_out_Y $end
$upscope $end
$upscope $end
$scope module _40_ $end
$var wire 1 ; A $end
$var wire 1 : B $end
$var wire 1 7 C $end
$var wire 1 p VGND $end
$var wire 1 q VNB $end
$var wire 1 r VPB $end
$var wire 1 s VPWR $end
$var wire 1 4 X $end
$scope module base $end
$var wire 1 ; A $end
$var wire 1 : B $end
$var wire 1 7 C $end
$var wire 1 t VGND $end
$var wire 1 u VNB $end
$var wire 1 v VPB $end
$var wire 1 w VPWR $end
$var wire 1 4 X $end
$var wire 1 x and0_out $end
$var wire 1 y and1_out $end
$var wire 1 z or0_out $end
$var wire 1 { or1_out_X $end
$upscope $end
$upscope $end
$scope module _41_ $end
$var wire 1 % A $end
$var wire 1 9 B $end
$var wire 1 | VGND $end
$var wire 1 } VNB $end
$var wire 1 ~ VPB $end
$var wire 1 !" VPWR $end
$var wire 1 3 Y $end
$scope module base $end
$var wire 1 % A $end
$var wire 1 9 B $end
$var wire 1 "" VGND $end
$var wire 1 #" VNB $end
$var wire 1 $" VPB $end
$var wire 1 %" VPWR $end
$var wire 1 3 Y $end
$var wire 1 &" xnor0_out_Y $end
$upscope $end
$upscope $end
$scope module _42_ $end
$var wire 1 4 A1 $end
$var wire 1 3 A2 $end
$var wire 1 & B1 $end
$var wire 1 '" VGND $end
$var wire 1 (" VNB $end
$var wire 1 )" VPB $end
$var wire 1 *" VPWR $end
$var wire 1 2 Y $end
$scope module base $end
$var wire 1 4 A1 $end
$var wire 1 3 A2 $end
$var wire 1 & B1 $end
$var wire 1 +" VGND $end
$var wire 1 ," VNB $end
$var wire 1 -" VPB $end
$var wire 1 ." VPWR $end
$var wire 1 2 Y $end
$var wire 1 /" and0_out $end
$var wire 1 0" nor0_out_Y $end
$upscope $end
$upscope $end
$scope module _43_ $end
$var wire 1 4 A1 $end
$var wire 1 3 A2 $end
$var wire 1 2 B1 $end
$var wire 1 1" VGND $end
$var wire 1 2" VNB $end
$var wire 1 3" VPB $end
$var wire 1 4" VPWR $end
$var wire 1 = X $end
$scope module base $end
$var wire 1 4 A1 $end
$var wire 1 3 A2 $end
$var wire 1 2 B1 $end
$var wire 1 5" VGND $end
$var wire 1 6" VNB $end
$var wire 1 7" VPB $end
$var wire 1 8" VPWR $end
$var wire 1 = X $end
$var wire 1 9" and0_out_X $end
$var wire 1 :" or0_out $end
$upscope $end
$upscope $end
$scope module _44_ $end
$var wire 1 ; A $end
$var wire 1 : B $end
$var wire 1 % C $end
$var wire 1 9 D $end
$var wire 1 ;" VGND $end
$var wire 1 <" VNB $end
$var wire 1 =" VPB $end
$var wire 1 >" VPWR $end
$var wire 1 1 X $end
$scope module base $end
$var wire 1 ; A $end
$var wire 1 : B $end
$var wire 1 % C $end
$var wire 1 9 D $end
$var wire 1 ?" VGND $end
$var wire 1 @" VNB $end
$var wire 1 A" VPB $end
$var wire 1 B" VPWR $end
$var wire 1 1 X $end
$var wire 1 C" or0_out_X $end
$upscope $end
$upscope $end
$scope module _45_ $end
$var wire 1 ; A $end
$var wire 1 : B $end
$var wire 1 % C $end
$var wire 1 9 D $end
$var wire 1 D" VGND $end
$var wire 1 E" VNB $end
$var wire 1 F" VPB $end
$var wire 1 G" VPWR $end
$var wire 1 0 Y $end
$scope module base $end
$var wire 1 ; A $end
$var wire 1 : B $end
$var wire 1 % C $end
$var wire 1 9 D $end
$var wire 1 H" VGND $end
$var wire 1 I" VNB $end
$var wire 1 J" VPB $end
$var wire 1 K" VPWR $end
$var wire 1 0 Y $end
$var wire 1 L" nand0_out_Y $end
$upscope $end
$upscope $end
$scope module _46_ $end
$var wire 1 1 A $end
$var wire 1 0 B $end
$var wire 1 M" VGND $end
$var wire 1 N" VNB $end
$var wire 1 O" VPB $end
$var wire 1 P" VPWR $end
$var wire 1 / Y $end
$scope module base $end
$var wire 1 1 A $end
$var wire 1 0 B $end
$var wire 1 Q" VGND $end
$var wire 1 R" VNB $end
$var wire 1 S" VPB $end
$var wire 1 T" VPWR $end
$var wire 1 / Y $end
$var wire 1 U" nand0_out_Y $end
$upscope $end
$upscope $end
$scope module _47_ $end
$var wire 1 8 A $end
$var wire 1 / B $end
$var wire 1 V" VGND $end
$var wire 1 W" VNB $end
$var wire 1 X" VPB $end
$var wire 1 Y" VPWR $end
$var wire 1 . Y $end
$scope module base $end
$var wire 1 8 A $end
$var wire 1 / B $end
$var wire 1 Z" VGND $end
$var wire 1 [" VNB $end
$var wire 1 \" VPB $end
$var wire 1 ]" VPWR $end
$var wire 1 . Y $end
$var wire 1 ^" xnor0_out_Y $end
$upscope $end
$upscope $end
$scope module _48_ $end
$var wire 1 & A $end
$var wire 1 . B $end
$var wire 1 _" VGND $end
$var wire 1 `" VNB $end
$var wire 1 a" VPB $end
$var wire 1 b" VPWR $end
$var wire 1 < Y $end
$scope module base $end
$var wire 1 & A $end
$var wire 1 . B $end
$var wire 1 c" VGND $end
$var wire 1 d" VNB $end
$var wire 1 e" VPB $end
$var wire 1 f" VPWR $end
$var wire 1 < Y $end
$var wire 1 g" nor0_out_Y $end
$upscope $end
$upscope $end
$scope module _49_ $end
$var wire 1 " CLK $end
$var wire 1 ( D $end
$var wire 1 h" VGND $end
$var wire 1 i" VNB $end
$var wire 1 j" VPB $end
$var wire 1 k" VPWR $end
$var wire 1 l" Q $end
$scope module base $end
$var wire 1 " CLK $end
$var wire 1 m" CLK_delayed $end
$var wire 1 ( D $end
$var wire 1 n" D_delayed $end
$var wire 1 l" Q $end
$var wire 1 o" VGND $end
$var wire 1 p" VNB $end
$var wire 1 q" VPB $end
$var wire 1 r" VPWR $end
$var wire 1 s" buf_Q $end
$var wire 1 t" awake $end
$var reg 1 u" notifier $end
$upscope $end
$upscope $end
$scope module _50_ $end
$var wire 1 " CLK $end
$var wire 1 ) D $end
$var wire 1 v" VGND $end
$var wire 1 w" VNB $end
$var wire 1 x" VPB $end
$var wire 1 y" VPWR $end
$var wire 1 z" Q $end
$scope module base $end
$var wire 1 " CLK $end
$var wire 1 {" CLK_delayed $end
$var wire 1 ) D $end
$var wire 1 |" D_delayed $end
$var wire 1 z" Q $end
$var wire 1 }" VGND $end
$var wire 1 ~" VNB $end
$var wire 1 !# VPB $end
$var wire 1 "# VPWR $end
$var wire 1 ## buf_Q $end
$var wire 1 $# awake $end
$var reg 1 %# notifier $end
$upscope $end
$upscope $end
$scope module _51_ $end
$var wire 1 " CLK $end
$var wire 1 * D $end
$var wire 1 &# VGND $end
$var wire 1 '# VNB $end
$var wire 1 (# VPB $end
$var wire 1 )# VPWR $end
$var wire 1 *# Q $end
$scope module base $end
$var wire 1 " CLK $end
$var wire 1 +# CLK_delayed $end
$var wire 1 * D $end
$var wire 1 ,# D_delayed $end
$var wire 1 *# Q $end
$var wire 1 -# VGND $end
$var wire 1 .# VNB $end
$var wire 1 /# VPB $end
$var wire 1 0# VPWR $end
$var wire 1 1# buf_Q $end
$var wire 1 2# awake $end
$var reg 1 3# notifier $end
$upscope $end
$upscope $end
$scope module _52_ $end
$var wire 1 " CLK $end
$var wire 1 + D $end
$var wire 1 4# VGND $end
$var wire 1 5# VNB $end
$var wire 1 6# VPB $end
$var wire 1 7# VPWR $end
$var wire 1 8# Q $end
$scope module base $end
$var wire 1 " CLK $end
$var wire 1 9# CLK_delayed $end
$var wire 1 + D $end
$var wire 1 :# D_delayed $end
$var wire 1 8# Q $end
$var wire 1 ;# VGND $end
$var wire 1 <# VNB $end
$var wire 1 =# VPB $end
$var wire 1 ># VPWR $end
$var wire 1 ?# buf_Q $end
$var wire 1 @# awake $end
$var reg 1 A# notifier $end
$upscope $end
$upscope $end
$upscope $end
$upscope $end
$enddefinitions $end
#0
$dumpvars
xA#
1@#
x?#
1>#
1=#
0<#
0;#
0:#
09#
x8#
17#
16#
05#
04#
x3#
12#
x1#
10#
1/#
0.#
0-#
0,#
0+#
x*#
1)#
1(#
0'#
0&#
x%#
1$#
x##
1"#
1!#
0~"
0}"
0|"
0{"
xz"
1y"
1x"
0w"
0v"
xu"
1t"
xs"
1r"
1q"
0p"
0o"
0n"
0m"
xl"
1k"
1j"
0i"
0h"
0g"
1f"
1e"
0d"
0c"
1b"
1a"
0`"
0_"
x^"
1]"
1\"
0["
0Z"
1Y"
1X"
0W"
0V"
xU"
1T"
1S"
0R"
0Q"
1P"
1O"
0N"
0M"
xL"
1K"
1J"
0I"
0H"
1G"
1F"
0E"
0D"
xC"
1B"
1A"
0@"
0?"
1>"
1="
0<"
0;"
x:"
09"
18"
17"
06"
05"
14"
13"
02"
01"
00"
x/"
1."
1-"
0,"
0+"
1*"
1)"
0("
0'"
x&"
1%"
1$"
0#"
0""
1!"
1~
0}
0|
x{
xz
xy
xx
1w
1v
0u
0t
1s
1r
0q
0p
0o
xn
1m
1l
0k
0j
1i
1h
0g
0f
xe
1d
0c
1b
1a
0`
0_
1^
1]
0\
0[
xZ
1Y
1X
0W
0V
1U
1T
0S
0R
0Q
1P
1O
0N
0M
1L
1K
0J
0I
xH
1G
1F
0E
0D
1C
1B
0A
0@
0?
0>
0=
0<
x;
x:
x9
x8
x7
x6
15
x4
x3
02
x1
x0
x/
x.
bz -
bx ,
0+
0*
0)
0(
bz '
1&
x%
1$
x#
0"
bx !
$end
#1000
0/"
04
0{
0x
10
0n
0z
0y
1L"
0;
0:
09
08
0l"
0z"
0*#
b0 !
b0 ,
08#
0s"
0##
01#
0?#
1m"
1{"
1+#
19#
1"
#2000
0m"
0{"
0+#
09#
0"
#3000
1m"
1{"
1+#
19#
1"
#4000
0.
1|"
0^"
1)
1>
1,#
1/
1o
1*
1=
1e
1:"
1U"
1n"
05
19"
1:#
17
16
13
01
1(
1?
0d
12
1+
1<
0m"
0{"
0+#
09#
1H
1Z
1&"
0C"
1Q
1c
10"
1g"
0"
0%
0#
0&
0$
#5000
1,#
1*
1=
1:#
1|"
19"
0/
1+
1<
0n"
1)
1>
14
1:"
0U"
1g"
0(
0?
1o
06
1x
1{
03
11
0.
0Q
0n
0Z
1z
1y
0&"
1C"
0^"
1;
1:
19
18
1l"
1z"
1*#
b1111 !
b1111 ,
18#
1s"
1##
11#
1?#
1m"
1{"
1+#
19#
1"
#6000
0m"
0{"
0+#
09#
0"
#7000
0|"
0)
0>
0o
1n"
15
1(
1?
1d
1Q
0e
0y
0;
b1110 !
b1110 ,
0l"
0s"
1m"
1{"
1+#
19#
1"
#8000
0m"
0{"
0+#
09#
0"
#9000
0n"
05
1n
0(
0?
0d
16
0Q
1e
1Z
1;
0:
1l"
b1101 !
b1101 ,
0z"
1s"
0##
1m"
1{"
1+#
19#
1"
#10000
0m"
0{"
0+#
09#
0"
#11000
0,#
0*
0=
09"
0:"
1|"
04
1n"
1)
1>
0{
1(
1?
1o
0x
1Q
0n
0z
0;
b1100 !
b1100 ,
0l"
0s"
1m"
1{"
1+#
19#
1"
#12000
0m"
0{"
0+#
09#
0"
#13000
02
0,#
00"
0*
0=
1|"
1/"
09"
0n"
1)
1>
14
1:"
0(
0?
1o
06
1x
1{
13
0Q
0n
0Z
1z
1y
1&"
1;
1:
09
1l"
1z"
b1011 !
b1011 ,
0*#
1s"
1##
01#
1m"
1{"
1+#
19#
1"
#14000
0m"
0{"
0+#
09#
0"
#15000
0|"
0)
0>
0o
1n"
15
1(
1?
1d
1Q
0e
0y
0;
b1010 !
b1010 ,
0l"
0s"
1m"
1{"
1+#
19#
1"
#16000
0m"
0{"
0+#
09#
0"
#17000
0n"
05
1n
0(
0?
0d
16
0Q
1e
1Z
1;
0:
1l"
b1001 !
b1001 ,
0z"
1s"
0##
1m"
1{"
1+#
19#
1"
#18000
0m"
0{"
0+#
09#
0"
#19000
1,#
1*
1=
0:#
19"
0+
0<
12
0g"
10"
1.
0/"
1^"
1|"
04
1/
1n"
1)
1>
0{
1U"
1(
1?
1o
0x
01
1Q
0n
0z
0C"
0;
b1000 !
b1000 ,
0l"
0s"
1m"
1{"
1+#
19#
1"
#20000
0m"
0{"
0+#
09#
0"
#21000
1,#
1*
1=
0:#
1|"
19"
0/
0+
0<
0n"
1)
1>
14
1:"
0U"
0g"
0(
0?
1o
06
1x
1{
03
11
1.
0Q
0n
0Z
1z
1y
0&"
1C"
1^"
1;
1:
19
08
1l"
1z"
1*#
b111 !
b111 ,
08#
1s"
1##
11#
0?#
1m"
1{"
1+#
19#
1"
#22000
0m"
0{"
0+#
09#
0"
#23000
0|"
0)
0>
0o
1n"
15
1(
1?
1d
1Q
0e
0y
0;
b110 !
b110 ,
0l"
0s"
1m"
1{"
1+#
19#
1"
#24000
0m"
0{"
0+#
09#
0"
#25000
0n"
05
1n
0(
0?
0d
16
0Q
1e
1Z
1;
0:
1l"
b101 !
b101 ,
0z"
1s"
0##
1m"
1{"
1+#
19#
1"
#26000
0m"
0{"
0+#
09#
0"
#27000
0,#
0*
0=
09"
0:"
1|"
04
1n"
1)
1>
0{
1(
1?
1o
0x
1Q
0n
0z
0;
b100 !
b100 ,
0l"
0s"
1m"
1{"
1+#
19#
1"
#28000
0m"
0{"
0+#
09#
0"
#29000
02
0,#
00"
0*
0=
1|"
1/"
09"
0n"
1)
1>
14
1:"
0(
0?
1o
06
1x
1{
13
0Q
0n
0Z
1z
1y
1&"
1;
1:
09
1l"
1z"
b11 !
b11 ,
0*#
1s"
1##
01#
1m"
1{"
1+#
19#
1"
#30000
0m"
0{"
0+#
09#
0"
#31000
0|"
0)
0>
0o
1n"
15
1(
1?
1d
1Q
0e
0y
0;
b10 !
b10 ,
0l"
0s"
1m"
1{"
1+#
19#
1"
#32000
0m"
0{"
0+#
09#
0"
#33000
0n"
05
1n
0(
0?
0d
16
0Q
1e
1Z
1;
0:
1l"
b1 !
b1 ,
0z"
1s"
0##
1m"
1{"
1+#
19#
1"
#34000
0m"
0{"
0+#
09#
0"
#35000
1,#
1*
1=
1:#
19"
1+
1<
12
1g"
10"
0.
0/"
0^"
1|"
04
1/
1n"
1)
1>
0{
1U"
1(
1?
1o
0x
01
1Q
0n
0z
0C"
0;
b0 !
b0 ,
0l"
0s"
1m"
1{"
1+#
19#
1"
#36000
0m"
0{"
0+#
09#
0"
#37000
1,#
1*
1=
1:#
1|"
19"
0/
1+
1<
0n"
1)
1>
14
1:"
0U"
1g"
0(
0?
1o
06
1x
1{
03
11
0.
0Q
0n
0Z
1z
1y
0&"
1C"
0^"
1;
1:
19
18
1l"
1z"
1*#
b1111 !
b1111 ,
18#
1s"
1##
11#
1?#
1m"
1{"
1+#
19#
1"
#38000
0m"
0{"
0+#
09#
0"
#39000
0|"
0)
0>
0o
1n"
15
1(
1?
1d
1Q
0e
0y
0;
b1110 !
b1110 ,
0l"
0s"
1m"
1{"
1+#
19#
1"
#40000
0m"
0{"
0+#
09#
0"
#41000
0n"
05
1n
0(
0?
0d
16
0Q
1e
1Z
1;
0:
1l"
b1101 !
b1101 ,
0z"
1s"
0##
1m"
1{"
1+#
19#
1"
#42000
0m"
0{"
0+#
09#
0"
#43000
0,#
0*
0=
09"
0:"
1|"
04
1n"
1)
1>
0{
1(
1?
1o
0x
1Q
0n
0z
0;
b1100 !
b1100 ,
0l"
0s"
1m"
1{"
1+#
19#
1"
#44000
0m"
0{"
0+#
09#
0"
#45000
02
0,#
00"
0*
0=
1|"
1/"
09"
0n"
1)
1>
14
1:"
0(
0?
1o
06
1x
1{
13
0Q
0n
0Z
1z
1y
1&"
1;
1:
09
1l"
1z"
b1011 !
b1011 ,
0*#
1s"
1##
01#
1m"
1{"
1+#
19#
1"
#46000
0m"
0{"
0+#
09#
0"
#47000
0|"
0)
0>
0o
1n"
15
1(
1?
1d
1Q
0e
0y
0;
b1010 !
b1010 ,
0l"
0s"
1m"
1{"
1+#
19#
1"
#48000
0m"
0{"
0+#
09#
0"
#49000
0n"
05
1n
0(
0?
0d
16
0Q
1e
1Z
1;
0:
1l"
b1001 !
b1001 ,
0z"
1s"
0##
1m"
1{"
1+#
19#
1"
#50000
0m"
0{"
0+#
09#
0"
#51000
1,#
1*
1=
0:#
19"
0+
0<
12
0g"
10"
1.
0/"
1^"
1|"
04
1/
1n"
1)
1>
0{
1U"
1(
1?
1o
0x
01
1Q
0n
0z
0C"
0;
b1000 !
b1000 ,
0l"
0s"
1m"
1{"
1+#
19#
1"
#52000
0m"
0{"
0+#
09#
0"
#53000
1,#
1*
1=
0:#
1|"
19"
0/
0+
0<
0n"
1)
1>
14
1:"
0U"
0g"
0(
0?
1o
06
1x
1{
03
11
1.
0Q
0n
0Z
1z
1y
0&"
1C"
1^"
1;
1:
19
08
1l"
1z"
1*#
b111 !
b111 ,
08#
1s"
1##
11#
0?#
1m"
1{"
1+#
19#
1"
#54000
0m"
0{"
0+#
09#
0"
#55000
0|"
0)
0>
0o
1n"
15
1(
1?
1d
1Q
0e
0y
0;
b110 !
b110 ,
0l"
0s"
1m"
1{"
1+#
19#
1"
#56000
0m"
0{"
0+#
09#
0"
#57000
0n"
05
1n
0(
0?
0d
16
0Q
1e
1Z
1;
0:
1l"
b101 !
b101 ,
0z"
1s"
0##
1m"
1{"
1+#
19#
1"
#58000
0m"
0{"
0+#
09#
0"
#59000
0,#
0*
0=
09"
0:"
1|"
04
1n"
1)
1>
0{
1(
1?
1o
0x
1Q
0n
0z
0;
b100 !
b100 ,
0l"
0s"
1m"
1{"
1+#
19#
1"
#60000
0m"
0{"
0+#
09#
0"
#61000
02
0,#
00"
0*
0=
1|"
1/"
09"
0n"
1)
1>
14
1:"
0(
0?
1o
06
1x
1{
13
0Q
0n
0Z
1z
1y
1&"
1;
1:
09
1l"
1z"
b11 !
b11 ,
0*#
1s"
1##
01#
1m"
1{"
1+#
19#
1"
#62000
0m"
0{"
0+#
09#
0"
#63000
0|"
0)
0>
0o
1n"
15
1(
1?
1d
1Q
0e
0y
0;
b10 !
b10 ,
0l"
0s"
1m"
1{"
1+#
19#
1"
#64000
0m"
0{"
0+#
09#
0"
#65000
0n"
05
1n
0(
0?
0d
16
0Q
1e
1Z
1;
0:
1l"
b1 !
b1 ,
0z"
1s"
0##
1m"
1{"
1+#
19#
1"
#66000
0m"
0{"
0+#
09#
0"
#67000
1,#
1*
1=
1:#
19"
1+
1<
12
1g"
10"
0.
0/"
0^"
1|"
04
1/
1n"
1)
1>
0{
1U"
1(
1?
1o
0x
01
1Q
0n
0z
0C"
0;
b0 !
b0 ,
0l"
0s"
1m"
1{"
1+#
19#
1"
#68000
0m"
0{"
0+#
09#
0"
#69000
1,#
1*
1=
1:#
1|"
19"
0/
1+
1<
0n"
1)
1>
14
1:"
0U"
1g"
0(
0?
1o
06
1x
1{
03
11
0.
0Q
0n
0Z
1z
1y
0&"
1C"
0^"
1;
1:
19
18
1l"
1z"
1*#
b1111 !
b1111 ,
18#
1s"
1##
11#
1?#
1m"
1{"
1+#
19#
1"
#70000
0m"
0{"
0+#
09#
0"
#71000
0|"
0)
0>
0o
1n"
15
1(
1?
1d
1Q
0e
0y
0;
b1110 !
b1110 ,
0l"
0s"
1m"
1{"
1+#
19#
1"
#72000
0m"
0{"
0+#
09#
0"
#73000
0n"
05
1n
0(
0?
0d
16
0Q
1e
1Z
1;
0:
1l"
b1101 !
b1101 ,
0z"
1s"
0##
1m"
1{"
1+#
19#
1"
#74000
0m"
0{"
0+#
09#
0"
#75000
0,#
0*
0=
09"
0:"
1|"
04
1n"
1)
1>
0{
1(
1?
1o
0x
1Q
0n
0z
0;
b1100 !
b1100 ,
0l"
0s"
1m"
1{"
1+#
19#
1"
#76000
0m"
0{"
0+#
09#
0"
#77000
02
0,#
00"
0*
0=
1|"
1/"
09"
0n"
1)
1>
14
1:"
0(
0?
1o
06
1x
1{
13
0Q
0n
0Z
1z
1y
1&"
1;
1:
09
1l"
1z"
b1011 !
b1011 ,
0*#
1s"
1##
01#
1m"
1{"
1+#
19#
1"
#78000
0m"
0{"
0+#
09#
0"
#79000
0|"
0)
0>
0o
1n"
15
1(
1?
1d
1Q
0e
0y
0;
b1010 !
b1010 ,
0l"
0s"
1m"
1{"
1+#
19#
1"
#80000
0m"
0{"
0+#
09#
0"
#81000
0n"
05
1n
0(
0?
0d
16
0Q
1e
1Z
1;
0:
1l"
b1001 !
b1001 ,
0z"
1s"
0##
1m"
1{"
1+#
19#
1"
#82000
0m"
0{"
0+#
09#
0"
#83000
1,#
1*
1=
0:#
19"
0+
0<
12
0g"
10"
1.
0/"
1^"
1|"
04
1/
1n"
1)
1>
0{
1U"
1(
1?
1o
0x
01
1Q
0n
0z
0C"
0;
b1000 !
b1000 ,
0l"
0s"
1m"
1{"
1+#
19#
1"
#84000
0m"
0{"
0+#
09#
0"
#85000
1,#
1*
1=
0:#
1|"
19"
0/
0+
0<
0n"
1)
1>
14
1:"
0U"
0g"
0(
0?
1o
06
1x
1{
03
11
1.
0Q
0n
0Z
1z
1y
0&"
1C"
1^"
1;
1:
19
08
1l"
1z"
1*#
b111 !
b111 ,
08#
1s"
1##
11#
0?#
1m"
1{"
1+#
19#
1"
#86000
0m"
0{"
0+#
09#
0"
#87000
0|"
0)
0>
0o
1n"
15
1(
1?
1d
1Q
0e
0y
0;
b110 !
b110 ,
0l"
0s"
1m"
1{"
1+#
19#
1"
#88000
0m"
0{"
0+#
09#
0"
#89000
0n"
05
1n
0(
0?
0d
16
0Q
1e
1Z
1;
0:
1l"
b101 !
b101 ,
0z"
1s"
0##
1m"
1{"
1+#
19#
1"
#90000
0m"
0{"
0+#
09#
0"
#91000
0,#
0*
0=
09"
0:"
1|"
04
1n"
1)
1>
0{
1(
1?
1o
0x
1Q
0n
0z
0;
b100 !
b100 ,
0l"
0s"
1m"
1{"
1+#
19#
1"
#92000
0m"
0{"
0+#
09#
0"
#93000
02
0,#
00"
0*
0=
1|"
1/"
09"
0n"
1)
1>
14
1:"
0(
0?
1o
06
1x
1{
13
0Q
0n
0Z
1z
1y
1&"
1;
1:
09
1l"
1z"
b11 !
b11 ,
0*#
1s"
1##
01#
1m"
1{"
1+#
19#
1"
#94000
0m"
0{"
0+#
09#
0"
#95000
0|"
0)
0>
0o
1n"
15
1(
1?
1d
1Q
0e
0y
0;
b10 !
b10 ,
0l"
0s"
1m"
1{"
1+#
19#
1"
#96000
0m"
0{"
0+#
09#
0"
#97000
0n"
05
1n
0(
0?
0d
16
0Q
1e
1Z
1;
0:
1l"
b1 !
b1 ,
0z"
1s"
0##
1m"
1{"
1+#
19#
1"
#98000
0m"
0{"
0+#
09#
0"
#99000
1,#
1*
1=
1:#
19"
1+
1<
12
1g"
10"
0.
0/"
0^"
1|"
04
1/
1n"
1)
1>
0{
1U"
1(
1?
1o
0x
01
1Q
0n
0z
0C"
0;
b0 !
b0 ,
0l"
0s"
1m"
1{"
1+#
19#
1"
#100000
0m"
0{"
0+#
09#
0"
#101000
1,#
1*
1=
1:#
1|"
19"
0/
1+
1<
0n"
1)
1>
14
1:"
0U"
1g"
0(
0?
1o
06
1x
1{
03
11
0.
0Q
0n
0Z
1z
1y
0&"
1C"
0^"
1;
1:
19
18
1l"
1z"
1*#
b1111 !
b1111 ,
18#
1s"
1##
11#
1?#
1m"
1{"
1+#
19#
1"
#102000
0m"
0{"
0+#
09#
0"
#103000
0|"
0)
0>
0o
1n"
15
1(
1?
1d
1Q
0e
0y
0;
b1110 !
b1110 ,
0l"
0s"
1m"
1{"
1+#
19#
1"
#104000
0m"
0{"
0+#
09#
0"
#105000
0n"
05
1n
0(
0?
0d
16
0Q
1e
1Z
1;
0:
1l"
b1101 !
b1101 ,
0z"
1s"
0##
1m"
1{"
1+#
19#
1"
#106000
0m"
0{"
0+#
09#
0"
#107000
0,#
0*
0=
09"
0:"
1|"
04
1n"
1)
1>
0{
1(
1?
1o
0x
1Q
0n
0z
0;
b1100 !
b1100 ,
0l"
0s"
1m"
1{"
1+#
19#
1"
#108000
0m"
0{"
0+#
09#
0"
#109000
02
0,#
00"
0*
0=
1|"
1/"
09"
0n"
1)
1>
14
1:"
0(
0?
1o
06
1x
1{
13
0Q
0n
0Z
1z
1y
1&"
1;
1:
09
1l"
1z"
b1011 !
b1011 ,
0*#
1s"
1##
01#
1m"
1{"
1+#
19#
1"
#110000
0m"
0{"
0+#
09#
0"
#111000
0|"
0)
0>
0o
1n"
15
1(
1?
1d
1Q
0e
0y
0;
b1010 !
b1010 ,
0l"
0s"
1m"
1{"
1+#
19#
1"
#112000
0m"
0{"
0+#
09#
0"
#113000
0n"
05
1n
0(
0?
0d
16
0Q
1e
1Z
1;
0:
1l"
b1001 !
b1001 ,
0z"
1s"
0##
1m"
1{"
1+#
19#
1"
#114000
0m"
0{"
0+#
09#
0"
#115000
1,#
1*
1=
0:#
19"
0+
0<
12
0g"
10"
1.
0/"
1^"
1|"
04
1/
1n"
1)
1>
0{
1U"
1(
1?
1o
0x
01
1Q
0n
0z
0C"
0;
b1000 !
b1000 ,
0l"
0s"
1m"
1{"
1+#
19#
1"
#116000
0m"
0{"
0+#
09#
0"
#117000
1,#
1*
1=
0:#
1|"
19"
0/
0+
0<
0n"
1)
1>
14
1:"
0U"
0g"
0(
0?
1o
06
1x
1{
03
11
1.
0Q
0n
0Z
1z
1y
0&"
1C"
1^"
1;
1:
19
08
1l"
1z"
1*#
b111 !
b111 ,
08#
1s"
1##
11#
0?#
1m"
1{"
1+#
19#
1"
#118000
0m"
0{"
0+#
09#
0"
#119000
0|"
0)
0>
0o
1n"
15
1(
1?
1d
1Q
0e
0y
0;
b110 !
b110 ,
0l"
0s"
1m"
1{"
1+#
19#
1"
#120000
0m"
0{"
0+#
09#
0"
#121000
0n"
05
1n
0(
0?
0d
16
0Q
1e
1Z
1;
0:
1l"
b101 !
b101 ,
0z"
1s"
0##
1m"
1{"
1+#
19#
1"
#122000
0m"
0{"
0+#
09#
0"
