RTL2GDS/design_analysis/gls_report/bidcounter_tb.vcd
$date
	Tue Oct 24 10:21:53 2023
$end
$version
	Icarus Verilog
$end
$timescale
	1ps
$end
$scope module bidcounter_tb $end
$var wire 4 ! count [3:0] $end
$var reg 1 " clk $end
$var reg 1 # ctrl $end
$var reg 1 $ reset $end
$scope module counter $end
$var wire 1 " clk $end
$var wire 1 # ctrl $end
$var wire 1 $ reset $end
$var wire 4 % count [3:0] $end
$var wire 1 & _10_ $end
$var wire 1 ' _09_ $end
$var wire 1 ( _08_ $end
$var wire 1 ) _07_ $end
$var wire 1 * _06_ $end
$var wire 1 + _05_ $end
$var wire 1 , _04_ $end
$var wire 1 - _03_ $end
$var wire 1 . _02_ $end
$var wire 1 / _01_ $end
$var wire 4 0 _00_ [3:0] $end
$scope module _11_ $end
$var wire 1 1 A $end
$var wire 1 2 VGND $end
$var wire 1 3 VNB $end
$var wire 1 4 VPB $end
$var wire 1 5 VPWR $end
$var wire 1 / Y $end
$scope module base $end
$var wire 1 1 A $end
$var wire 1 6 VGND $end
$var wire 1 7 VNB $end
$var wire 1 8 VPB $end
$var wire 1 9 VPWR $end
$var wire 1 / Y $end
$var wire 1 : not0_out_Y $end
$upscope $end
$upscope $end
$scope module _12_ $end
$var wire 1 ; A $end
$var wire 1 $ B $end
$var wire 1 < VGND $end
$var wire 1 = VNB $end
$var wire 1 > VPB $end
$var wire 1 ? VPWR $end
$var wire 1 @ Y $end
$scope module base $end
$var wire 1 ; A $end
$var wire 1 $ B $end
$var wire 1 A VGND $end
$var wire 1 B VNB $end
$var wire 1 C VPB $end
$var wire 1 D VPWR $end
$var wire 1 @ Y $end
$var wire 1 E nor0_out_Y $end
$upscope $end
$upscope $end
$scope module _13_ $end
$var wire 1 F A $end
$var wire 1 G B $end
$var wire 1 H VGND $end
$var wire 1 I VNB $end
$var wire 1 J VPB $end
$var wire 1 K VPWR $end
$var wire 1 . Y $end
$scope module base $end
$var wire 1 F A $end
$var wire 1 G B $end
$var wire 1 L VGND $end
$var wire 1 M VNB $end
$var wire 1 N VPB $end
$var wire 1 O VPWR $end
$var wire 1 . Y $end
$var wire 1 P nand0_out_Y $end
$upscope $end
$upscope $end
$scope module _14_ $end
$var wire 1 Q A1 $end
$var wire 1 R A2 $end
$var wire 1 # B1_N $end
$var wire 1 S VGND $end
$var wire 1 T VNB $end
$var wire 1 U VPB $end
$var wire 1 V VPWR $end
$var wire 1 - X $end
$scope module base $end
$var wire 1 Q A1 $end
$var wire 1 R A2 $end
$var wire 1 # B1_N $end
$var wire 1 W VGND $end
$var wire 1 X VNB $end
$var wire 1 Y VPB $end
$var wire 1 Z VPWR $end
$var wire 1 - X $end
$var wire 1 [ nor0_out $end
$var wire 1 \ nor1_out_X $end
$upscope $end
$upscope $end
$scope module _15_ $end
$var wire 1 ] A $end
$var wire 1 ^ B $end
$var wire 1 _ VGND $end
$var wire 1 ` VNB $end
$var wire 1 a VPB $end
$var wire 1 b VPWR $end
$var wire 1 , Y $end
$scope module base $end
$var wire 1 ] A $end
$var wire 1 ^ B $end
$var wire 1 c VGND $end
$var wire 1 d VNB $end
$var wire 1 e VPB $end
$var wire 1 f VPWR $end
$var wire 1 , Y $end
$var wire 1 g xnor0_out_Y $end
$upscope $end
$upscope $end
$scope module _16_ $end
$var wire 1 . A1 $end
$var wire 1 - A2 $end
$var wire 1 , B1 $end
$var wire 1 # B2 $end
$var wire 1 $ C1 $end
$var wire 1 h VGND $end
$var wire 1 i VNB $end
$var wire 1 j VPB $end
$var wire 1 k VPWR $end
$var wire 1 l Y $end
$scope module base $end
$var wire 1 . A1 $end
$var wire 1 - A2 $end
$var wire 1 , B1 $end
$var wire 1 # B2 $end
$var wire 1 $ C1 $end
$var wire 1 m VGND $end
$var wire 1 n VNB $end
$var wire 1 o VPB $end
$var wire 1 p VPWR $end
$var wire 1 l Y $end
$var wire 1 q and0_out $end
$var wire 1 r and1_out $end
$var wire 1 s nor0_out_Y $end
$upscope $end
$upscope $end
$scope module _17_ $end
$var wire 1 t A1 $end
$var wire 1 u A2 $end
$var wire 1 # B1_N $end
$var wire 1 v VGND $end
$var wire 1 w VNB $end
$var wire 1 x VPB $end
$var wire 1 y VPWR $end
$var wire 1 + Y $end
$scope module base $end
$var wire 1 t A1 $end
$var wire 1 u A2 $end
$var wire 1 # B1_N $end
$var wire 1 z VGND $end
$var wire 1 { VNB $end
$var wire 1 | VPB $end
$var wire 1 } VPWR $end
$var wire 1 + Y $end
$var wire 1 ~ and0_out $end
$var wire 1 !" b $end
$var wire 1 "" nor0_out_Y $end
$upscope $end
$upscope $end
$scope module _18_ $end
$var wire 1 - A1 $end
$var wire 1 + A2 $end
$var wire 1 #" B1 $end
$var wire 1 $" VGND $end
$var wire 1 %" VNB $end
$var wire 1 &" VPB $end
$var wire 1 '" VPWR $end
$var wire 1 * Y $end
$scope module base $end
$var wire 1 - A1 $end
$var wire 1 + A2 $end
$var wire 1 #" B1 $end
$var wire 1 (" VGND $end
$var wire 1 )" VNB $end
$var wire 1 *" VPB $end
$var wire 1 +" VPWR $end
$var wire 1 * Y $end
$var wire 1 ," nand0_out_Y $end
$var wire 1 -" or0_out $end
$upscope $end
$upscope $end
$scope module _19_ $end
$var wire 1 ." A $end
$var wire 1 - B $end
$var wire 1 + C $end
$var wire 1 /" VGND $end
$var wire 1 0" VNB $end
$var wire 1 1" VPB $end
$var wire 1 2" VPWR $end
$var wire 1 ) X $end
$scope module base $end
$var wire 1 ." A $end
$var wire 1 - B $end
$var wire 1 + C $end
$var wire 1 3" VGND $end
$var wire 1 4" VNB $end
$var wire 1 5" VPB $end
$var wire 1 6" VPWR $end
$var wire 1 ) X $end
$var wire 1 7" or0_out_X $end
$upscope $end
$upscope $end
$scope module _20_ $end
$var wire 1 * A1 $end
$var wire 1 ) A2 $end
$var wire 1 $ B1 $end
$var wire 1 8" VGND $end
$var wire 1 9" VNB $end
$var wire 1 :" VPB $end
$var wire 1 ;" VPWR $end
$var wire 1 <" Y $end
$scope module base $end
$var wire 1 * A1 $end
$var wire 1 ) A2 $end
$var wire 1 $ B1 $end
$var wire 1 =" VGND $end
$var wire 1 >" VNB $end
$var wire 1 ?" VPB $end
$var wire 1 @" VPWR $end
$var wire 1 <" Y $end
$var wire 1 A" and0_out $end
$var wire 1 B" nor0_out_Y $end
$upscope $end
$upscope $end
$scope module _21_ $end
$var wire 1 # A $end
$var wire 1 C" B $end
$var wire 1 D" VGND $end
$var wire 1 E" VNB $end
$var wire 1 F" VPB $end
$var wire 1 G" VPWR $end
$var wire 1 ( X $end
$scope module base $end
$var wire 1 # A $end
$var wire 1 C" B $end
$var wire 1 H" VGND $end
$var wire 1 I" VNB $end
$var wire 1 J" VPB $end
$var wire 1 K" VPWR $end
$var wire 1 ( X $end
$var wire 1 L" xor0_out_X $end
$upscope $end
$upscope $end
$scope module _22_ $end
$var wire 1 / A $end
$var wire 1 - B $end
$var wire 1 + C $end
$var wire 1 ( D $end
$var wire 1 M" VGND $end
$var wire 1 N" VNB $end
$var wire 1 O" VPB $end
$var wire 1 P" VPWR $end
$var wire 1 ' Y $end
$scope module base $end
$var wire 1 / A $end
$var wire 1 - B $end
$var wire 1 + C $end
$var wire 1 ( D $end
$var wire 1 Q" VGND $end
$var wire 1 R" VNB $end
$var wire 1 S" VPB $end
$var wire 1 T" VPWR $end
$var wire 1 ' Y $end
$var wire 1 U" nor0_out_Y $end
$upscope $end
$upscope $end
$scope module _23_ $end
$var wire 1 - A1 $end
$var wire 1 + A2 $end
$var wire 1 ( A3 $end
$var wire 1 / B1 $end
$var wire 1 V" VGND $end
$var wire 1 W" VNB $end
$var wire 1 X" VPB $end
$var wire 1 Y" VPWR $end
$var wire 1 & Y $end
$scope module base $end
$var wire 1 - A1 $end
$var wire 1 + A2 $end
$var wire 1 ( A3 $end
$var wire 1 / B1 $end
$var wire 1 Z" VGND $end
$var wire 1 [" VNB $end
$var wire 1 \" VPB $end
$var wire 1 ]" VPWR $end
$var wire 1 & Y $end
$var wire 1 ^" nand0_out_Y $end
$var wire 1 _" or0_out $end
$upscope $end
$upscope $end
$scope module _24_ $end
$var wire 1 $ A $end
$var wire 1 ' B $end
$var wire 1 & C_N $end
$var wire 1 `" VGND $end
$var wire 1 a" VNB $end
$var wire 1 b" VPB $end
$var wire 1 c" VPWR $end
$var wire 1 d" Y $end
$scope module base $end
$var wire 1 $ A $end
$var wire 1 ' B $end
$var wire 1 & C_N $end
$var wire 1 e" VGND $end
$var wire 1 f" VNB $end
$var wire 1 g" VPB $end
$var wire 1 h" VPWR $end
$var wire 1 d" Y $end
$var wire 1 i" and0_out_Y $end
$var wire 1 j" nor0_out $end
$upscope $end
$upscope $end
$scope module _25_ $end
$var wire 1 " CLK $end
$var wire 1 k" D $end
$var wire 1 l" VGND $end
$var wire 1 m" VNB $end
$var wire 1 n" VPB $end
$var wire 1 o" VPWR $end
$var wire 1 p" Q $end
$scope module base $end
$var wire 1 " CLK $end
$var wire 1 q" CLK_delayed $end
$var wire 1 k" D $end
$var wire 1 r" D_delayed $end
$var wire 1 p" Q $end
$var wire 1 s" VGND $end
$var wire 1 t" VNB $end
$var wire 1 u" VPB $end
$var wire 1 v" VPWR $end
$var wire 1 w" buf_Q $end
$var wire 1 x" awake $end
$var reg 1 y" notifier $end
$upscope $end
$upscope $end
$scope module _26_ $end
$var wire 1 " CLK $end
$var wire 1 z" D $end
$var wire 1 {" VGND $end
$var wire 1 |" VNB $end
$var wire 1 }" VPB $end
$var wire 1 ~" VPWR $end
$var wire 1 !# Q $end
$scope module base $end
$var wire 1 " CLK $end
$var wire 1 "# CLK_delayed $end
$var wire 1 z" D $end
$var wire 1 ## D_delayed $end
$var wire 1 !# Q $end
$var wire 1 $# VGND $end
$var wire 1 %# VNB $end
$var wire 1 &# VPB $end
$var wire 1 '# VPWR $end
$var wire 1 (# buf_Q $end
$var wire 1 )# awake $end
$var reg 1 *# notifier $end
$upscope $end
$upscope $end
$scope module _27_ $end
$var wire 1 " CLK $end
$var wire 1 +# D $end
$var wire 1 ,# VGND $end
$var wire 1 -# VNB $end
$var wire 1 .# VPB $end
$var wire 1 /# VPWR $end
$var wire 1 0# Q $end
$scope module base $end
$var wire 1 " CLK $end
$var wire 1 1# CLK_delayed $end
$var wire 1 +# D $end
$var wire 1 2# D_delayed $end
$var wire 1 0# Q $end
$var wire 1 3# VGND $end
$var wire 1 4# VNB $end
$var wire 1 5# VPB $end
$var wire 1 6# VPWR $end
$var wire 1 7# buf_Q $end
$var wire 1 8# awake $end
$var reg 1 9# notifier $end
$upscope $end
$upscope $end
$scope module _28_ $end
$var wire 1 " CLK $end
$var wire 1 :# D $end
$var wire 1 ;# VGND $end
$var wire 1 <# VNB $end
$var wire 1 =# VPB $end
$var wire 1 ># VPWR $end
$var wire 1 ?# Q $end
$scope module base $end
$var wire 1 " CLK $end
$var wire 1 @# CLK_delayed $end
$var wire 1 :# D $end
$var wire 1 A# D_delayed $end
$var wire 1 ?# Q $end
$var wire 1 B# VGND $end
$var wire 1 C# VNB $end
$var wire 1 D# VPB $end
$var wire 1 E# VPWR $end
$var wire 1 F# buf_Q $end
$var wire 1 G# awake $end
$var reg 1 H# notifier $end
$upscope $end
$upscope $end
$upscope $end
$upscope $end
$enddefinitions $end
#0
$dumpvars
xH#
1G#
xF#
1E#
1D#
0C#
0B#
0A#
0@#
x?#
1>#
1=#
0<#
0;#
0:#
x9#
18#
x7#
16#
15#
04#
03#
02#
01#
x0#
1/#
1.#
0-#
0,#
0+#
x*#
1)#
x(#
1'#
1&#
0%#
0$#
0##
0"#
x!#
1~"
1}"
0|"
0{"
0z"
xy"
1x"
xw"
1v"
1u"
0t"
0s"
0r"
0q"
xp"
1o"
1n"
0m"
0l"
0k"
0j"
0i"
1h"
1g"
0f"
0e"
0d"
1c"
1b"
0a"
0`"
x_"
x^"
1]"
1\"
0["
0Z"
1Y"
1X"
0W"
0V"
xU"
1T"
1S"
0R"
0Q"
1P"
1O"
0N"
0M"
xL"
1K"
1J"
0I"
0H"
1G"
1F"
0E"
0D"
xC"
0B"
xA"
1@"
1?"
0>"
0="
0<"
1;"
1:"
09"
08"
x7"
16"
15"
04"
03"
12"
11"
00"
0/"
x."
x-"
x,"
1+"
1*"
0)"
0("
1'"
1&"
0%"
0$"
x#"
x""
x!"
x~
1}
1|
0{
0z
1y
1x
0w
0v
xu
xt
0s
xr
xq
1p
1o
0n
0m
0l
1k
1j
0i
0h
xg
1f
1e
0d
0c
1b
1a
0`
0_
x^
x]
x\
x[
1Z
1Y
0X
0W
1V
1U
0T
0S
xR
xQ
xP
1O
1N
0M
0L
1K
1J
0I
0H
xG
xF
0E
1D
1C
0B
0A
0@
1?
1>
0=
0<
x;
x:
19
18
07
06
15
14
03
02
x1
b0 0
x/
x.
x-
x,
x+
x*
x)
x(
x'
x&
bx %
1$
x#
0"
bx !
$end
#1000
0r
0'
0-
0U"
1,
0\
1.
1*
1/
0~
1g
1[
1P
1,"
1:
0t
0]
0Q
0F
0;
0u
0^
0R
0G
0C"
0."
0#"
01
0p"
0!#
00#
b0 !
b0 %
0?#
0w"
0(#
07#
0F#
1q"
1"#
11#
1@#
1"
#2000
0q"
0"#
01#
0@#
0"
#3000
1q"
1"#
11#
1@#
1"
#4000
0A"
1&
0)
1^"
1A#
0-"
07"
0_"
1r"
1##
12#
1:#
0+
1k"
1z"
1+#
1d"
0""
0(
1@
1l
b1111 0
1<"
1i"
0q"
0"#
01#
0@#
0q
1!"
0L"
1E
1s
1B"
1j"
0"
0#
0$
#5000
12#
0*
1+#
0,"
1<"
0r"
1-"
1B"
0k"
1-
1_"
0A"
b1110 0
0@
1\
0.
1(
1)
0/
0E
1~
0[
0P
1L"
17"
0:
1t
1]
1Q
1F
1;
1u
1^
1R
1G
1C"
1."
1#"
11
1p"
1!#
10#
b1111 !
b1111 %
1?#
1w"
1(#
17#
1F#
1q"
1"#
11#
1@#
1"
#6000
0q"
0"#
01#
0@#
0"
#7000
0##
0z"
0l
0s
1r"
1r
1k"
0,
1.
b1101 0
1@
0~
0g
1P
1E
0t
0]
0Q
0F
0;
b1110 !
b1110 %
0p"
0w"
1q"
1"#
11#
1@#
1"
#8000
0q"
0"#
01#
0@#
0"
#9000
0r"
0k"
b1100 0
0@
0E
1t
1]
1Q
1F
1;
0u
0^
0R
0G
1p"
b1101 !
b1101 %
0!#
1w"
0(#
1q"
1"#
11#
1@#
1"
#10000
0q"
0"#
01#
0@#
0"
#11000
02#
0+#
0<"
1##
0B"
1z"
1A"
1l
1*
1s
1,"
0r
0-"
1r"
0-
1k"
1,
0\
b1011 0
1@
1g
1[
1E
0t
0]
0Q
0F
0;
b1100 !
b1100 %
0p"
0w"
1q"
1"#
11#
1@#
1"
#12000
0q"
0"#
01#
0@#
0"
#13000
1A#
1:#
1d"
02#
1i"
0+#
1j"
0<"
0r"
1-"
0'
0B"
0k"
1-
0U"
1_"
1A"
b1010 0
0@
1\
0.
0(
1)
0E
1~
0[
0P
0L"
17"
1t
1]
1Q
1F
1;
1u
1^
1R
1G
0C"
0."
0#"
1p"
1!#
b1011 !
b1011 %
00#
1w"
1(#
07#
1q"
1"#
11#
1@#
1"
#14000
0q"
0"#
01#
0@#
0"
#15000
0##
0z"
0l
0s
1r"
1r
1k"
0,
1.
b1001 0
1@
0~
0g
1P
1E
0t
0]
0Q
0F
0;
b1010 !
b1010 %
0p"
0w"
1q"
1"#
11#
1@#
1"
#16000
0q"
0"#
01#
0@#
0"
#17000
0r"
0k"
b1000 0
0@
0E
1t
1]
1Q
1F
1;
0u
0^
0R
0G
1p"
b1001 !
b1001 %
0!#
1w"
0(#
1q"
1"#
11#
1@#
1"
#18000
0q"
0"#
01#
0@#
0"
#19000
12#
0A#
1+#
0:#
1##
1<"
0d"
1z"
1B"
0i"
1l
0A"
0j"
1s
0)
1'
0r
0-"
07"
1U"
0_"
1r"
0-
1k"
1,
0\
b111 0
1@
1g
1[
1E
0t
0]
0Q
0F
0;
b1000 !
b1000 %
0p"
0w"
1q"
1"#
11#
1@#
1"
#20000
0q"
0"#
01#
0@#
0"
#21000
12#
0*
1+#
0,"
0&
1<"
1j"
0r"
1-"
0^"
1B"
0'
0k"
1-
1_"
0A"
0U"
b110 0
0@
1\
0.
1(
1)
1/
0E
1~
0[
0P
1L"
17"
1:
1t
1]
1Q
1F
1;
1u
1^
1R
1G
1C"
1."
1#"
01
1p"
1!#
10#
b111 !
b111 %
0?#
1w"
1(#
17#
0F#
1q"
1"#
11#
1@#
1"
#22000
0q"
0"#
01#
0@#
0"
#23000
0##
0z"
0l
0s
1r"
1r
1k"
0,
1.
b101 0
1@
0~
0g
1P
1E
0t
0]
0Q
0F
0;
b110 !
b110 %
0p"
0w"
1q"
1"#
11#
1@#
1"
#24000
0q"
0"#
01#
0@#
0"
#25000
0r"
0k"
b100 0
0@
0E
1t
1]
1Q
1F
1;
0u
0^
0R
0G
1p"
b101 !
b101 %
0!#
1w"
0(#
1q"
1"#
11#
1@#
1"
#26000
0q"
0"#
01#
0@#
0"
#27000
02#
0+#
0<"
1##
0B"
1z"
1A"
1l
1*
1s
1,"
0r
0-"
1r"
0-
1k"
1,
0\
b11 0
1@
1g
1[
1E
0t
0]
0Q
0F
0;
b100 !
b100 %
0p"
0w"
1q"
1"#
11#
1@#
1"
#28000
0q"
0"#
01#
0@#
0"
#29000
0A#
0:#
0d"
02#
0i"
0+#
0&
0<"
0r"
1-"
0^"
0B"
0k"
1-
1_"
1A"
b10 0
0@
1\
0.
0(
1)
0E
1~
0[
0P
0L"
17"
1t
1]
1Q
1F
1;
1u
1^
1R
1G
0C"
0."
0#"
1p"
1!#
b11 !
b11 %
00#
1w"
1(#
07#
1q"
1"#
11#
1@#
1"
#30000
0q"
0"#
01#
0@#
0"
#31000
0##
0z"
0l
0s
1r"
1r
1k"
0,
1.
b1 0
1@
0~
0g
1P
1E
0t
0]
0Q
0F
0;
b10 !
b10 %
0p"
0w"
1q"
1"#
11#
1@#
1"
#32000
0q"
0"#
01#
0@#
0"
#33000
0r"
0k"
b0 0
0@
0E
1t
1]
1Q
1F
1;
0u
0^
0R
0G
1p"
b1 !
b1 %
0!#
1w"
0(#
1q"
1"#
11#
1@#
1"
#34000
0q"
0"#
01#
0@#
0"
#35000
12#
1A#
1+#
1:#
1##
1<"
1d"
1z"
1B"
1i"
1l
0A"
1&
1s
0)
1^"
0r
0-"
07"
0_"
1r"
0-
1k"
1,
0\
b1111 0
1@
1g
1[
1E
0t
0]
0Q
0F
0;
b0 !
b0 %
0p"
0w"
1q"
1"#
11#
1@#
1"
#36000
0q"
0"#
01#
0@#
0"
#37000
12#
0*
1+#
0,"
1<"
0r"
1-"
1B"
0k"
1-
1_"
0A"
b1110 0
0@
1\
0.
1(
1)
0/
0E
1~
0[
0P
1L"
17"
0:
1t
1]
1Q
1F
1;
1u
1^
1R
1G
1C"
1."
1#"
11
1p"
1!#
10#
b1111 !
b1111 %
1?#
1w"
1(#
17#
1F#
1q"
1"#
11#
1@#
1"
#38000
0q"
0"#
01#
0@#
0"
#39000
0##
0z"
0l
0s
1r"
1r
1k"
0,
1.
b1101 0
1@
0~
0g
1P
1E
0t
0]
0Q
0F
0;
b1110 !
b1110 %
0p"
0w"
1q"
1"#
11#
1@#
1"
#40000
0q"
0"#
01#
0@#
0"
#41000
0r"
0k"
b1100 0
0@
0E
1t
1]
1Q
1F
1;
0u
0^
0R
0G
1p"
b1101 !
b1101 %
0!#
1w"
0(#
1q"
1"#
11#
1@#
1"
#42000
0q"
0"#
01#
0@#
0"
#43000
02#
0+#
0<"
1##
0B"
1z"
1A"
1l
1*
1s
1,"
0r
0-"
1r"
0-
1k"
1,
0\
b1011 0
1@
1g
1[
1E
0t
0]
0Q
0F
0;
b1100 !
b1100 %
0p"
0w"
1q"
1"#
11#
1@#
1"
#44000
0q"
0"#
01#
0@#
0"
#45000
1A#
1:#
1d"
02#
1i"
0+#
1j"
0<"
0r"
1-"
0'
0B"
0k"
1-
0U"
1_"
1A"
b1010 0
0@
1\
0.
0(
1)
0E
1~
0[
0P
0L"
17"
1t
1]
1Q
1F
1;
1u
1^
1R
1G
0C"
0."
0#"
1p"
1!#
b1011 !
b1011 %
00#
1w"
1(#
07#
1q"
1"#
11#
1@#
1"
#46000
0q"
0"#
01#
0@#
0"
#47000
0##
0z"
0l
0s
1r"
1r
1k"
0,
1.
b1001 0
1@
0~
0g
1P
1E
0t
0]
0Q
0F
0;
b1010 !
b1010 %
0p"
0w"
1q"
1"#
11#
1@#
1"
#48000
0q"
0"#
01#
0@#
0"
#49000
0r"
0k"
b1000 0
0@
0E
1t
1]
1Q
1F
1;
0u
0^
0R
0G
1p"
b1001 !
b1001 %
0!#
1w"
0(#
1q"
1"#
11#
1@#
1"
#50000
0q"
0"#
01#
0@#
0"
#51000
12#
0A#
1+#
0:#
1##
1<"
0d"
1z"
1B"
0i"
1l
0A"
0j"
1s
0)
1'
0r
0-"
07"
1U"
0_"
1r"
0-
1k"
1,
0\
b111 0
1@
1g
1[
1E
0t
0]
0Q
0F
0;
b1000 !
b1000 %
0p"
0w"
1q"
1"#
11#
1@#
1"
#52000
0q"
0"#
01#
0@#
0"
#53000
12#
0*
1+#
0,"
0&
1<"
1j"
0r"
1-"
0^"
1B"
0'
0k"
1-
1_"
0A"
0U"
b110 0
0@
1\
0.
1(
1)
1/
0E
1~
0[
0P
1L"
17"
1:
1t
1]
1Q
1F
1;
1u
1^
1R
1G
1C"
1."
1#"
01
1p"
1!#
10#
b111 !
b111 %
0?#
1w"
1(#
17#
0F#
1q"
1"#
11#
1@#
1"
#54000
0q"
0"#
01#
0@#
0"
#55000
0##
0z"
0l
0s
1r"
1r
1k"
0,
1.
b101 0
1@
0~
0g
1P
1E
0t
0]
0Q
0F
0;
b110 !
b110 %
0p"
0w"
1q"
1"#
11#
1@#
1"
#56000
0q"
0"#
01#
0@#
0"
#57000
0r"
0k"
b100 0
0@
0E
1t
1]
1Q
1F
1;
0u
0^
0R
0G
1p"
b101 !
b101 %
0!#
1w"
0(#
1q"
1"#
11#
1@#
1"
#58000
0q"
0"#
01#
0@#
0"
#59000
02#
0+#
0<"
1##
0B"
1z"
1A"
1l
1*
1s
1,"
0r
0-"
1r"
0-
1k"
1,
0\
b11 0
1@
1g
1[
1E
0t
0]
0Q
0F
0;
b100 !
b100 %
0p"
0w"
1q"
1"#
11#
1@#
1"
#60000
0q"
0"#
01#
0@#
0"
#61000
0A#
0:#
0d"
02#
0i"
0+#
0&
0<"
0r"
1-"
0^"
0B"
0k"
1-
1_"
1A"
b10 0
0@
1\
0.
0(
1)
0E
1~
0[
0P
0L"
17"
1t
1]
1Q
1F
1;
1u
1^
1R
1G
0C"
0."
0#"
1p"
1!#
b11 !
b11 %
00#
1w"
1(#
07#
1q"
1"#
11#
1@#
1"
#62000
0q"
0"#
01#
0@#
0"
#63000
0##
0z"
0l
0s
1r"
1r
1k"
0,
1.
b1 0
1@
0~
0g
1P
1E
0t
0]
0Q
0F
0;
b10 !
b10 %
0p"
0w"
1q"
1"#
11#
1@#
1"
#64000
0q"
0"#
01#
0@#
0"
#65000
0r"
0k"
b0 0
0@
0E
1t
1]
1Q
1F
1;
0u
0^
0R
0G
1p"
b1 !
b1 %
0!#
1w"
0(#
1q"
1"#
11#
1@#
1"
#66000
0q"
0"#
01#
0@#
0"
#67000
12#
1A#
1+#
1:#
1##
1<"
1d"
1z"
1B"
1i"
1l
0A"
1&
1s
0)
1^"
0r
0-"
07"
0_"
1r"
0-
1k"
1,
0\
b1111 0
1@
1g
1[
1E
0t
0]
0Q
0F
0;
b0 !
b0 %
0p"
0w"
1q"
1"#
11#
1@#
1"
#68000
0q"
0"#
01#
0@#
0"
#69000
12#
0*
1+#
0,"
1<"
0r"
1-"
1B"
0k"
1-
1_"
0A"
b1110 0
0@
1\
0.
1(
1)
0/
0E
1~
0[
0P
1L"
17"
0:
1t
1]
1Q
1F
1;
1u
1^
1R
1G
1C"
1."
1#"
11
1p"
1!#
10#
b1111 !
b1111 %
1?#
1w"
1(#
17#
1F#
1q"
1"#
11#
1@#
1"
#70000
0q"
0"#
01#
0@#
0"
#71000
0##
0z"
0l
0s
1r"
1r
1k"
0,
1.
b1101 0
1@
0~
0g
1P
1E
0t
0]
0Q
0F
0;
b1110 !
b1110 %
0p"
0w"
1q"
1"#
11#
1@#
1"
#72000
0q"
0"#
01#
0@#
0"
#73000
0r"
0k"
b1100 0
0@
0E
1t
1]
1Q
1F
1;
0u
0^
0R
0G
1p"
b1101 !
b1101 %
0!#
1w"
0(#
1q"
1"#
11#
1@#
1"
#74000
0q"
0"#
01#
0@#
0"
#75000
02#
0+#
0<"
1##
0B"
1z"
1A"
1l
1*
1s
1,"
0r
0-"
1r"
0-
1k"
1,
0\
b1011 0
1@
1g
1[
1E
0t
0]
0Q
0F
0;
b1100 !
b1100 %
0p"
0w"
1q"
1"#
11#
1@#
1"
#76000
0q"
0"#
01#
0@#
0"
#77000
1A#
1:#
1d"
02#
1i"
0+#
1j"
0<"
0r"
1-"
0'
0B"
0k"
1-
0U"
1_"
1A"
b1010 0
0@
1\
0.
0(
1)
0E
1~
0[
0P
0L"
17"
1t
1]
1Q
1F
1;
1u
1^
1R
1G
0C"
0."
0#"
1p"
1!#
b1011 !
b1011 %
00#
1w"
1(#
07#
1q"
1"#
11#
1@#
1"
#78000
0q"
0"#
01#
0@#
0"
#79000
0##
0z"
0l
0s
1r"
1r
1k"
0,
1.
b1001 0
1@
0~
0g
1P
1E
0t
0]
0Q
0F
0;
b1010 !
b1010 %
0p"
0w"
1q"
1"#
11#
1@#
1"
#80000
0q"
0"#
01#
0@#
0"
#81000
0r"
0k"
b1000 0
0@
0E
1t
1]
1Q
1F
1;
0u
0^
0R
0G
1p"
b1001 !
b1001 %
0!#
1w"
0(#
1q"
1"#
11#
1@#
1"
#82000
0q"
0"#
01#
0@#
0"
#83000
12#
0A#
1+#
0:#
1##
1<"
0d"
1z"
1B"
0i"
1l
0A"
0j"
1s
0)
1'
0r
0-"
07"
1U"
0_"
1r"
0-
1k"
1,
0\
b111 0
1@
1g
1[
1E
0t
0]
0Q
0F
0;
b1000 !
b1000 %
0p"
0w"
1q"
1"#
11#
1@#
1"
#84000
0q"
0"#
01#
0@#
0"
#85000
12#
0*
1+#
0,"
0&
1<"
1j"
0r"
1-"
0^"
1B"
0'
0k"
1-
1_"
0A"
0U"
b110 0
0@
1\
0.
1(
1)
1/
0E
1~
0[
0P
1L"
17"
1:
1t
1]
1Q
1F
1;
1u
1^
1R
1G
1C"
1."
1#"
01
1p"
1!#
10#
b111 !
b111 %
0?#
1w"
1(#
17#
0F#
1q"
1"#
11#
1@#
1"
#86000
0q"
0"#
01#
0@#
0"
#87000
0##
0z"
0l
0s
1r"
1r
1k"
0,
1.
b101 0
1@
0~
0g
1P
1E
0t
0]
0Q
0F
0;
b110 !
b110 %
0p"
0w"
1q"
1"#
11#
1@#
1"
#88000
0q"
0"#
01#
0@#
0"
#89000
0r"
0k"
b100 0
0@
0E
1t
1]
1Q
1F
1;
0u
0^
0R
0G
1p"
b101 !
b101 %
0!#
1w"
0(#
1q"
1"#
11#
1@#
1"
#90000
0q"
0"#
01#
0@#
0"
#91000
02#
0+#
0<"
1##
0B"
1z"
1A"
1l
1*
1s
1,"
0r
0-"
1r"
0-
1k"
1,
0\
b11 0
1@
1g
1[
1E
0t
0]
0Q
0F
0;
b100 !
b100 %
0p"
0w"
1q"
1"#
11#
1@#
1"
#92000
0q"
0"#
01#
0@#
0"
#93000
0A#
0:#
0d"
02#
0i"
0+#
0&
0<"
0r"
1-"
0^"
0B"
0k"
1-
1_"
1A"
b10 0
0@
1\
0.
0(
1)
0E
1~
0[
0P
0L"
17"
1t
1]
1Q
1F
1;
1u
1^
1R
1G
0C"
0."
0#"
1p"
1!#
b11 !
b11 %
00#
1w"
1(#
07#
1q"
1"#
11#
1@#
1"
#94000
0q"
0"#
01#
0@#
0"
#95000
0##
0z"
0l
0s
1r"
1r
1k"
0,
1.
b1 0
1@
0~
0g
1P
1E
0t
0]
0Q
0F
0;
b10 !
b10 %
0p"
0w"
1q"
1"#
11#
1@#
1"
#96000
0q"
0"#
01#
0@#
0"
#97000
0r"
0k"
b0 0
0@
0E
1t
1]
1Q
1F
1;
0u
0^
0R
0G
1p"
b1 !
b1 %
0!#
1w"
0(#
1q"
1"#
11#
1@#
1"
#98000
0q"
0"#
01#
0@#
0"
#99000
12#
1A#
1+#
1:#
1##
1<"
1d"
1z"
1B"
1i"
1l
0A"
1&
1s
0)
1^"
0r
0-"
07"
0_"
1r"
0-
1k"
1,
0\
b1111 0
1@
1g
1[
1E
0t
0]
0Q
0F
0;
b0 !
b0 %
0p"
0w"
1q"
1"#
11#
1@#
1"
#100000
0q"
0"#
01#
0@#
0"
#101000
12#
0*
1+#
0,"
1<"
0r"
1-"
1B"
0k"
1-
1_"
0A"
b1110 0
0@
1\
0.
1(
1)
0/
0E
1~
0[
0P
1L"
17"
0:
1t
1]
1Q
1F
1;
1u
1^
1R
1G
1C"
1."
1#"
11
1p"
1!#
10#
b1111 !
b1111 %
1?#
1w"
1(#
17#
1F#
1q"
1"#
11#
1@#
1"
#102000
0q"
0"#
01#
0@#
0"
#103000
0##
0z"
0l
0s
1r"
1r
1k"
0,
1.
b1101 0
1@
0~
0g
1P
1E
0t
0]
0Q
0F
0;
b1110 !
b1110 %
0p"
0w"
1q"
1"#
11#
1@#
1"
#104000
0q"
0"#
01#
0@#
0"
